%!PS-Adobe-3.0 EPSF-3.0
%%Creator: (MATLAB, The Mathworks, Inc. Version 9.0.0.341360 \(R2016a\). Operating System: Mac OS X)
%%Title: (/Users/bccho/Documents/Princeton/Year 3/Spring 2017/ELE 302/independent_project/writeup/images/fig_bounce.eps)
%%CreationDate: 2017-05-19T14:51:19
%%Pages: (atend)
%%BoundingBox: 0 0 560 420
%%LanguageLevel: 3
%%EndComments
%%BeginProlog
%%BeginResource: procset (Apache XML Graphics Std ProcSet) 1.2 0
%%Version: 1.2 0
%%Copyright: (Copyright 2001-2003,2010 The Apache Software Foundation. License terms: http://www.apache.org/licenses/LICENSE-2.0)
/bd{bind def}bind def
/ld{load def}bd
/GR/grestore ld
/M/moveto ld
/LJ/setlinejoin ld
/C/curveto ld
/f/fill ld
/LW/setlinewidth ld
/GC/setgray ld
/t/show ld
/N/newpath ld
/CT/concat ld
/cp/closepath ld
/S/stroke ld
/L/lineto ld
/CC/setcmykcolor ld
/A/ashow ld
/GS/gsave ld
/RC/setrgbcolor ld
/RM/rmoveto ld
/ML/setmiterlimit ld
/re {4 2 roll M
1 index 0 rlineto
0 exch rlineto
neg 0 rlineto
cp } bd
/_ctm matrix def
/_tm matrix def
/BT { _ctm currentmatrix pop matrix _tm copy pop 0 0 moveto } bd
/ET { _ctm setmatrix } bd
/iTm { _ctm setmatrix _tm concat } bd
/Tm { _tm astore pop iTm 0 0 moveto } bd
/ux 0.0 def
/uy 0.0 def
/F {
  /Tp exch def
  /Tf exch def
  Tf findfont Tp scalefont setfont
  /cf Tf def  /cs Tp def
} bd
/ULS {currentpoint /uy exch def /ux exch def} bd
/ULE {
  /Tcx currentpoint pop def
  gsave
  newpath
  cf findfont cs scalefont dup
  /FontMatrix get 0 get /Ts exch def /FontInfo get dup
  /UnderlinePosition get Ts mul /To exch def
  /UnderlineThickness get Ts mul /Tt exch def
  ux uy To add moveto  Tcx uy To add lineto
  Tt setlinewidth stroke
  grestore
} bd
/OLE {
  /Tcx currentpoint pop def
  gsave
  newpath
  cf findfont cs scalefont dup
  /FontMatrix get 0 get /Ts exch def /FontInfo get dup
  /UnderlinePosition get Ts mul /To exch def
  /UnderlineThickness get Ts mul /Tt exch def
  ux uy To add cs add moveto Tcx uy To add cs add lineto
  Tt setlinewidth stroke
  grestore
} bd
/SOE {
  /Tcx currentpoint pop def
  gsave
  newpath
  cf findfont cs scalefont dup
  /FontMatrix get 0 get /Ts exch def /FontInfo get dup
  /UnderlinePosition get Ts mul /To exch def
  /UnderlineThickness get Ts mul /Tt exch def
  ux uy To add cs 10 mul 26 idiv add moveto Tcx uy To add cs 10 mul 26 idiv add lineto
  Tt setlinewidth stroke
  grestore
} bd
/QT {
/Y22 exch store
/X22 exch store
/Y21 exch store
/X21 exch store
currentpoint
/Y21 load 2 mul add 3 div exch
/X21 load 2 mul add 3 div exch
/X21 load 2 mul /X22 load add 3 div
/Y21 load 2 mul /Y22 load add 3 div
/X22 load /Y22 load curveto
} bd
/SSPD {
dup length /d exch dict def
{
/v exch def
/k exch def
currentpagedevice k known {
/cpdv currentpagedevice k get def
v cpdv ne {
/upd false def
/nullv v type /nulltype eq def
/nullcpdv cpdv type /nulltype eq def
nullv nullcpdv or
{
/upd true def
} {
/sametype v type cpdv type eq def
sametype {
v type /arraytype eq {
/vlen v length def
/cpdvlen cpdv length def
vlen cpdvlen eq {
0 1 vlen 1 sub {
/i exch def
/obj v i get def
/cpdobj cpdv i get def
obj cpdobj ne {
/upd true def
exit
} if
} for
} {
/upd true def
} ifelse
} {
v type /dicttype eq {
v {
/dv exch def
/dk exch def
/cpddv cpdv dk get def
dv cpddv ne {
/upd true def
exit
} if
} forall
} {
/upd true def
} ifelse
} ifelse
} if
} ifelse
upd true eq {
d k v put
} if
} if
} if
} forall
d length 0 gt {
d setpagedevice
} if
} bd
%%EndResource
%%BeginResource: procset (Apache XML Graphics EPS ProcSet) 1.0 0
%%Version: 1.0 0
%%Copyright: (Copyright 2002-2003 The Apache Software Foundation. License terms: http://www.apache.org/licenses/LICENSE-2.0)
/BeginEPSF { %def
/b4_Inc_state save def         % Save state for cleanup
/dict_count countdictstack def % Count objects on dict stack
/op_count count 1 sub def      % Count objects on operand stack
userdict begin                 % Push userdict on dict stack
/showpage { } def              % Redefine showpage, { } = null proc
0 setgray 0 setlinecap         % Prepare graphics state
1 setlinewidth 0 setlinejoin
10 setmiterlimit [ ] 0 setdash newpath
/languagelevel where           % If level not equal to 1 then
{pop languagelevel             % set strokeadjust and
1 ne                           % overprint to their defaults.
{false setstrokeadjust false setoverprint
} if
} if
} bd
/EndEPSF { %def
count op_count sub {pop} repeat            % Clean up stacks
countdictstack dict_count sub {end} repeat
b4_Inc_state restore
} bd
%%EndResource
%FOPBeginFontDict
%%IncludeResource: font Courier-Bold
%%IncludeResource: font Helvetica
%%IncludeResource: font Courier-BoldOblique
%%IncludeResource: font Courier-Oblique
%%IncludeResource: font Times-Roman
%%IncludeResource: font Helvetica-BoldOblique
%%IncludeResource: font Helvetica-Bold
%%IncludeResource: font Helvetica-Oblique
%%IncludeResource: font Times-BoldItalic
%%IncludeResource: font Courier
%%IncludeResource: font Times-Italic
%%IncludeResource: font Times-Bold
%%IncludeResource: font Symbol
%%IncludeResource: font ZapfDingbats
%FOPEndFontDict
%%BeginResource: encoding WinAnsiEncoding
/WinAnsiEncoding [
/.notdef /.notdef /.notdef /.notdef /.notdef
/.notdef /.notdef /.notdef /.notdef /.notdef
/.notdef /.notdef /.notdef /.notdef /.notdef
/.notdef /.notdef /.notdef /.notdef /.notdef
/.notdef /.notdef /.notdef /.notdef /.notdef
/.notdef /.notdef /.notdef /.notdef /.notdef
/.notdef /.notdef /space /exclam /quotedbl
/numbersign /dollar /percent /ampersand /quotesingle
/parenleft /parenright /asterisk /plus /comma
/hyphen /period /slash /zero /one
/two /three /four /five /six
/seven /eight /nine /colon /semicolon
/less /equal /greater /question /at
/A /B /C /D /E
/F /G /H /I /J
/K /L /M /N /O
/P /Q /R /S /T
/U /V /W /X /Y
/Z /bracketleft /backslash /bracketright /asciicircum
/underscore /quoteleft /a /b /c
/d /e /f /g /h
/i /j /k /l /m
/n /o /p /q /r
/s /t /u /v /w
/x /y /z /braceleft /bar
/braceright /asciitilde /bullet /Euro /bullet
/quotesinglbase /florin /quotedblbase /ellipsis /dagger
/daggerdbl /circumflex /perthousand /Scaron /guilsinglleft
/OE /bullet /Zcaron /bullet /bullet
/quoteleft /quoteright /quotedblleft /quotedblright /bullet
/endash /emdash /asciitilde /trademark /scaron
/guilsinglright /oe /bullet /zcaron /Ydieresis
/space /exclamdown /cent /sterling /currency
/yen /brokenbar /section /dieresis /copyright
/ordfeminine /guillemotleft /logicalnot /sfthyphen /registered
/macron /degree /plusminus /twosuperior /threesuperior
/acute /mu /paragraph /middot /cedilla
/onesuperior /ordmasculine /guillemotright /onequarter /onehalf
/threequarters /questiondown /Agrave /Aacute /Acircumflex
/Atilde /Adieresis /Aring /AE /Ccedilla
/Egrave /Eacute /Ecircumflex /Edieresis /Igrave
/Iacute /Icircumflex /Idieresis /Eth /Ntilde
/Ograve /Oacute /Ocircumflex /Otilde /Odieresis
/multiply /Oslash /Ugrave /Uacute /Ucircumflex
/Udieresis /Yacute /Thorn /germandbls /agrave
/aacute /acircumflex /atilde /adieresis /aring
/ae /ccedilla /egrave /eacute /ecircumflex
/edieresis /igrave /iacute /icircumflex /idieresis
/eth /ntilde /ograve /oacute /ocircumflex
/otilde /odieresis /divide /oslash /ugrave
/uacute /ucircumflex /udieresis /yacute /thorn
/ydieresis
] def
%%EndResource
%FOPBeginFontReencode
/Courier-Bold findfont
dup length dict begin
  {1 index /FID ne {def} {pop pop} ifelse} forall
  /Encoding WinAnsiEncoding def
  currentdict
end
/Courier-Bold exch definefont pop
/Helvetica findfont
dup length dict begin
  {1 index /FID ne {def} {pop pop} ifelse} forall
  /Encoding WinAnsiEncoding def
  currentdict
end
/Helvetica exch definefont pop
/Courier-BoldOblique findfont
dup length dict begin
  {1 index /FID ne {def} {pop pop} ifelse} forall
  /Encoding WinAnsiEncoding def
  currentdict
end
/Courier-BoldOblique exch definefont pop
/Courier-Oblique findfont
dup length dict begin
  {1 index /FID ne {def} {pop pop} ifelse} forall
  /Encoding WinAnsiEncoding def
  currentdict
end
/Courier-Oblique exch definefont pop
/Times-Roman findfont
dup length dict begin
  {1 index /FID ne {def} {pop pop} ifelse} forall
  /Encoding WinAnsiEncoding def
  currentdict
end
/Times-Roman exch definefont pop
/Helvetica-BoldOblique findfont
dup length dict begin
  {1 index /FID ne {def} {pop pop} ifelse} forall
  /Encoding WinAnsiEncoding def
  currentdict
end
/Helvetica-BoldOblique exch definefont pop
/Helvetica-Bold findfont
dup length dict begin
  {1 index /FID ne {def} {pop pop} ifelse} forall
  /Encoding WinAnsiEncoding def
  currentdict
end
/Helvetica-Bold exch definefont pop
/Helvetica-Oblique findfont
dup length dict begin
  {1 index /FID ne {def} {pop pop} ifelse} forall
  /Encoding WinAnsiEncoding def
  currentdict
end
/Helvetica-Oblique exch definefont pop
/Times-BoldItalic findfont
dup length dict begin
  {1 index /FID ne {def} {pop pop} ifelse} forall
  /Encoding WinAnsiEncoding def
  currentdict
end
/Times-BoldItalic exch definefont pop
/Courier findfont
dup length dict begin
  {1 index /FID ne {def} {pop pop} ifelse} forall
  /Encoding WinAnsiEncoding def
  currentdict
end
/Courier exch definefont pop
/Times-Italic findfont
dup length dict begin
  {1 index /FID ne {def} {pop pop} ifelse} forall
  /Encoding WinAnsiEncoding def
  currentdict
end
/Times-Italic exch definefont pop
/Times-Bold findfont
dup length dict begin
  {1 index /FID ne {def} {pop pop} ifelse} forall
  /Encoding WinAnsiEncoding def
  currentdict
end
/Times-Bold exch definefont pop
%FOPEndFontReencode
%%EndProlog
%%Page: 1 1
%%PageBoundingBox: 0 0 560 420
%%BeginPageSetup
[1 0 0 -1 0 420] CT
%%EndPageSetup
GS
1 GC
N
0 0 560 420 re
f
GR
GS
1 GC
N
0 0 560 420 re
f
GR
GS
1 GC
N
73 374 M
507 374 L
507 31.5 L
73 31.5 L
cp
f
GR
GS
0.149 GC
2 setlinecap
1 LJ
0.5 LW
N
73 374 M
507 374 L
S
GR
GS
0.149 GC
2 setlinecap
1 LJ
0.5 LW
N
73 31.5 M
507 31.5 L
S
GR
GS
0.149 GC
2 setlinecap
1 LJ
0.5 LW
N
73 374 M
73 369.66 L
S
GR
GS
0.149 GC
2 setlinecap
1 LJ
0.5 LW
N
176.531 374 M
176.531 369.66 L
S
GR
GS
0.149 GC
2 setlinecap
1 LJ
0.5 LW
N
280.061 374 M
280.061 369.66 L
S
GR
GS
0.149 GC
2 setlinecap
1 LJ
0.5 LW
N
383.592 374 M
383.592 369.66 L
S
GR
GS
0.149 GC
2 setlinecap
1 LJ
0.5 LW
N
487.122 374 M
487.122 369.66 L
S
GR
GS
0.149 GC
2 setlinecap
1 LJ
0.5 LW
N
73 31.5 M
73 35.84 L
S
GR
GS
0.149 GC
2 setlinecap
1 LJ
0.5 LW
N
176.531 31.5 M
176.531 35.84 L
S
GR
GS
0.149 GC
2 setlinecap
1 LJ
0.5 LW
N
280.061 31.5 M
280.061 35.84 L
S
GR
GS
0.149 GC
2 setlinecap
1 LJ
0.5 LW
N
383.592 31.5 M
383.592 35.84 L
S
GR
GS
0.149 GC
2 setlinecap
1 LJ
0.5 LW
N
487.122 31.5 M
487.122 35.84 L
S
GR
GS
[1 0 0 1 73 378.79999] CT
0.149 GC
/Helvetica 14 F
GS
[1 0 0 1 0 0] CT
-4 14 moveto 
1 -1 scale
(0) t 
GR
GR
GS
[1 0 0 1 176.53053 378.79999] CT
0.149 GC
/Helvetica 14 F
GS
[1 0 0 1 0 0] CT
-10 14 moveto 
1 -1 scale
(0.5) t 
GR
GR
GS
[1 0 0 1 280.06107 378.79999] CT
0.149 GC
/Helvetica 14 F
GS
[1 0 0 1 0 0] CT
-4 14 moveto 
1 -1 scale
(1) t 
GR
GR
GS
[1 0 0 1 383.59161 378.79999] CT
0.149 GC
/Helvetica 14 F
GS
[1 0 0 1 0 0] CT
-10 14 moveto 
1 -1 scale
(1.5) t 
GR
GR
GS
[1 0 0 1 487.12213 378.79999] CT
0.149 GC
/Helvetica 14 F
GS
[1 0 0 1 0 0] CT
-4 14 moveto 
1 -1 scale
(2) t 
GR
GR
GS
[1 0 0 1 290.00018 396.29999] CT
0.149 GC
/Helvetica 15.4 F
GS
[1 0 0 1 0 0] CT
-24.5 15 moveto 
1 -1 scale
(Time, s) t 
GR
GR
GS
0.149 GC
2 setlinecap
1 LJ
0.5 LW
N
73 374 M
73 31.5 L
S
GR
GS
0.149 GC
2 setlinecap
1 LJ
0.5 LW
N
507 374 M
507 31.5 L
S
GR
GS
0.149 GC
2 setlinecap
1 LJ
0.5 LW
N
73 374 M
77.34 374 L
S
GR
GS
0.149 GC
2 setlinecap
1 LJ
0.5 LW
N
73 331.188 M
77.34 331.188 L
S
GR
GS
0.149 GC
2 setlinecap
1 LJ
0.5 LW
N
73 288.375 M
77.34 288.375 L
S
GR
GS
0.149 GC
2 setlinecap
1 LJ
0.5 LW
N
73 245.563 M
77.34 245.563 L
S
GR
GS
0.149 GC
2 setlinecap
1 LJ
0.5 LW
N
73 202.75 M
77.34 202.75 L
S
GR
GS
0.149 GC
2 setlinecap
1 LJ
0.5 LW
N
73 159.938 M
77.34 159.938 L
S
GR
GS
0.149 GC
2 setlinecap
1 LJ
0.5 LW
N
73 117.125 M
77.34 117.125 L
S
GR
GS
0.149 GC
2 setlinecap
1 LJ
0.5 LW
N
73 74.313 M
77.34 74.313 L
S
GR
GS
0.149 GC
2 setlinecap
1 LJ
0.5 LW
N
73 31.5 M
77.34 31.5 L
S
GR
GS
0.149 GC
2 setlinecap
1 LJ
0.5 LW
N
507 374 M
502.66 374 L
S
GR
GS
0.149 GC
2 setlinecap
1 LJ
0.5 LW
N
507 331.188 M
502.66 331.188 L
S
GR
GS
0.149 GC
2 setlinecap
1 LJ
0.5 LW
N
507 288.375 M
502.66 288.375 L
S
GR
GS
0.149 GC
2 setlinecap
1 LJ
0.5 LW
N
507 245.563 M
502.66 245.563 L
S
GR
GS
0.149 GC
2 setlinecap
1 LJ
0.5 LW
N
507 202.75 M
502.66 202.75 L
S
GR
GS
0.149 GC
2 setlinecap
1 LJ
0.5 LW
N
507 159.938 M
502.66 159.938 L
S
GR
GS
0.149 GC
2 setlinecap
1 LJ
0.5 LW
N
507 117.125 M
502.66 117.125 L
S
GR
GS
0.149 GC
2 setlinecap
1 LJ
0.5 LW
N
507 74.313 M
502.66 74.313 L
S
GR
GS
0.149 GC
2 setlinecap
1 LJ
0.5 LW
N
507 31.5 M
502.66 31.5 L
S
GR
GS
[1 0 0 1 68.2 374] CT
0.149 GC
/Helvetica 14 F
GS
[1 0 0 1 0 0] CT
-8 5.5 moveto 
1 -1 scale
(0) t 
GR
GR
GS
[1 0 0 1 68.2 331.1875] CT
0.149 GC
/Helvetica 14 F
GS
[1 0 0 1 0 0] CT
-16 5.5 moveto 
1 -1 scale
(50) t 
GR
GR
GS
[1 0 0 1 68.2 288.375] CT
0.149 GC
/Helvetica 14 F
GS
[1 0 0 1 0 0] CT
-24 5.5 moveto 
1 -1 scale
(100) t 
GR
GR
GS
[1 0 0 1 68.2 245.5625] CT
0.149 GC
/Helvetica 14 F
GS
[1 0 0 1 0 0] CT
-24 5.5 moveto 
1 -1 scale
(150) t 
GR
GR
GS
[1 0 0 1 68.2 202.75] CT
0.149 GC
/Helvetica 14 F
GS
[1 0 0 1 0 0] CT
-24 5.5 moveto 
1 -1 scale
(200) t 
GR
GR
GS
[1 0 0 1 68.2 159.9375] CT
0.149 GC
/Helvetica 14 F
GS
[1 0 0 1 0 0] CT
-24 5.5 moveto 
1 -1 scale
(250) t 
GR
GR
GS
[1 0 0 1 68.2 117.125] CT
0.149 GC
/Helvetica 14 F
GS
[1 0 0 1 0 0] CT
-24 5.5 moveto 
1 -1 scale
(300) t 
GR
GR
GS
[1 0 0 1 68.2 74.3125] CT
0.149 GC
/Helvetica 14 F
GS
[1 0 0 1 0 0] CT
-24 5.5 moveto 
1 -1 scale
(350) t 
GR
GR
GS
[1 0 0 1 68.2 31.5] CT
0.149 GC
/Helvetica 14 F
GS
[1 0 0 1 0 0] CT
-24 5.5 moveto 
1 -1 scale
(400) t 
GR
GR
GS
[0 -1 1 0 41.7 202.74985] CT
0.149 GC
/Helvetica 15.4 F
GS
[1 0 0 1 0 0] CT
-88 -4 moveto 
1 -1 scale
(Height above ground, mm) t 
GR
GR
GS
0 0.447 0.741 RC
1 LJ
0.7 LW
N
73.828 66.257 M
76.934 66.257 L
81.282 71.176 L
85.217 72.743 L
89.565 69.5 L
93.706 75.878 L
98.054 71.15 L
102.196 71.093 L
106.544 69.443 L
110.685 75.931 L
114.826 72.743 L
119.382 71.15 L
123.523 74.311 L
128.078 74.311 L
132.012 72.743 L
136.982 74.311 L
141.33 69.5 L
145.264 72.743 L
149.613 75.986 L
153.754 86.619 L
157.688 94.687 L
162.036 112.827 L
166.592 129.786 L
170.733 151.114 L
174.667 177.58 L
179.222 208.414 L
183.571 239.596 L
187.919 288.396 L
191.853 309.371 L
195.994 354.877 L
200.343 359.578 L
204.484 326.184 L
208.832 303.869 L
213.387 273.165 L
217.322 247.18 L
221.67 228.456 L
225.811 212.293 L
230.159 198.641 L
234.301 186.194 L
238.856 181.956 L
242.79 180.439 L
247.138 177.237 L
251.487 183.208 L
255.835 188.023 L
259.976 200.158 L
264.117 211.57 L
268.466 233.081 L
273.021 254.665 L
276.955 276 L
281.096 310.167 L
285.445 336.674 L
289.586 368.752 L
293.934 356.418 L
298.282 326.514 L
302.424 308.6 L
306.772 292.685 L
310.913 272.774 L
315.261 259.339 L
319.403 249.077 L
323.958 243.47 L
327.892 241.729 L
332.24 239.129 L
336.589 246.137 L
341.144 250.704 L
345.078 263.771 L
349.219 278.466 L
353.568 296.098 L
357.709 313.732 L
362.264 340.182 L
366.613 363.693 L
370.547 356.346 L
374.895 338.712 L
379.45 313.554 L
383.385 306.384 L
387.94 296.098 L
392.081 287.282 L
396.015 281.087 L
400.364 279.935 L
404.919 278.194 L
409.681 284.343 L
413.408 291.215 L
417.343 302.79 L
421.691 314.365 L
425.832 334.62 L
430.18 357.815 L
434.943 372.509 L
438.67 351.982 L
443.225 336.067 L
447.159 320.152 L
451.508 312.129 L
455.649 303.579 L
460.204 299.304 L
464.552 302.79 L
468.694 302.155 L
472.628 306.429 L
477.183 321.599 L
481.117 331.727 L
485.466 347.529 L
490.021 368.101 L
494.162 366.632 L
498.925 346.195 L
502.859 340.182 L
507 331.365 L
S
GR
GS
[1 0 0 1 73.82825 66.25691] CT
0 0.447 0.741 RC
N
1.667 0 M
1.667 0.92 0.92 1.667 0 1.667 C
-0.92 1.667 -1.667 0.92 -1.667 0 C
-1.667 -0.92 -0.92 -1.667 0 -1.667 C
0.92 -1.667 1.667 -0.92 1.667 0 C
cp
f
GR
GS
[1 0 0 1 76.93416 66.25691] CT
0 0.447 0.741 RC
N
1.667 0 M
1.667 0.92 0.92 1.667 0 1.667 C
-0.92 1.667 -1.667 0.92 -1.667 0 C
-1.667 -0.92 -0.92 -1.667 0 -1.667 C
0.92 -1.667 1.667 -0.92 1.667 0 C
cp
f
GR
GS
[1 0 0 1 81.28244 71.17606] CT
0 0.447 0.741 RC
N
1.667 0 M
1.667 0.92 0.92 1.667 0 1.667 C
-0.92 1.667 -1.667 0.92 -1.667 0 C
-1.667 -0.92 -0.92 -1.667 0 -1.667 C
0.92 -1.667 1.667 -0.92 1.667 0 C
cp
f
GR
GS
[1 0 0 1 85.21661 72.74299] CT
0 0.447 0.741 RC
N
1.667 0 M
1.667 0.92 0.92 1.667 0 1.667 C
-0.92 1.667 -1.667 0.92 -1.667 0 C
-1.667 -0.92 -0.92 -1.667 0 -1.667 C
0.92 -1.667 1.667 -0.92 1.667 0 C
cp
f
GR
GS
[1 0 0 1 89.56489 69.50038] CT
0 0.447 0.741 RC
N
1.667 0 M
1.667 0.92 0.92 1.667 0 1.667 C
-0.92 1.667 -1.667 0.92 -1.667 0 C
-1.667 -0.92 -0.92 -1.667 0 -1.667 C
0.92 -1.667 1.667 -0.92 1.667 0 C
cp
f
GR
GS
[1 0 0 1 93.70611 75.87773] CT
0 0.447 0.741 RC
N
1.667 0 M
1.667 0.92 0.92 1.667 0 1.667 C
-0.92 1.667 -1.667 0.92 -1.667 0 C
-1.667 -0.92 -0.92 -1.667 0 -1.667 C
0.92 -1.667 1.667 -0.92 1.667 0 C
cp
f
GR
GS
[1 0 0 1 98.05439 71.14951] CT
0 0.447 0.741 RC
N
1.667 0 M
1.667 0.92 0.92 1.667 0 1.667 C
-0.92 1.667 -1.667 0.92 -1.667 0 C
-1.667 -0.92 -0.92 -1.667 0 -1.667 C
0.92 -1.667 1.667 -0.92 1.667 0 C
cp
f
GR
GS
[1 0 0 1 102.19561 71.09299] CT
0 0.447 0.741 RC
N
1.667 0 M
1.667 0.92 0.92 1.667 0 1.667 C
-0.92 1.667 -1.667 0.92 -1.667 0 C
-1.667 -0.92 -0.92 -1.667 0 -1.667 C
0.92 -1.667 1.667 -0.92 1.667 0 C
cp
f
GR
GS
[1 0 0 1 106.54389 69.44299] CT
0 0.447 0.741 RC
N
1.667 0 M
1.667 0.92 0.92 1.667 0 1.667 C
-0.92 1.667 -1.667 0.92 -1.667 0 C
-1.667 -0.92 -0.92 -1.667 0 -1.667 C
0.92 -1.667 1.667 -0.92 1.667 0 C
cp
f
GR
GS
[1 0 0 1 110.68511 75.93082] CT
0 0.447 0.741 RC
N
1.667 0 M
1.667 0.92 0.92 1.667 0 1.667 C
-0.92 1.667 -1.667 0.92 -1.667 0 C
-1.667 -0.92 -0.92 -1.667 0 -1.667 C
0.92 -1.667 1.667 -0.92 1.667 0 C
cp
f
GR
GS
[1 0 0 1 114.82634 72.74299] CT
0 0.447 0.741 RC
N
1.667 0 M
1.667 0.92 0.92 1.667 0 1.667 C
-0.92 1.667 -1.667 0.92 -1.667 0 C
-1.667 -0.92 -0.92 -1.667 0 -1.667 C
0.92 -1.667 1.667 -0.92 1.667 0 C
cp
f
GR
GS
[1 0 0 1 119.38168 71.14951] CT
0 0.447 0.741 RC
N
1.667 0 M
1.667 0.92 0.92 1.667 0 1.667 C
-0.92 1.667 -1.667 0.92 -1.667 0 C
-1.667 -0.92 -0.92 -1.667 0 -1.667 C
0.92 -1.667 1.667 -0.92 1.667 0 C
cp
f
GR
GS
[1 0 0 1 123.5229 74.31078] CT
0 0.447 0.741 RC
N
1.667 0 M
1.667 0.92 0.92 1.667 0 1.667 C
-0.92 1.667 -1.667 0.92 -1.667 0 C
-1.667 -0.92 -0.92 -1.667 0 -1.667 C
0.92 -1.667 1.667 -0.92 1.667 0 C
cp
f
GR
GS
[1 0 0 1 128.07825 74.31078] CT
0 0.447 0.741 RC
N
1.667 0 M
1.667 0.92 0.92 1.667 0 1.667 C
-0.92 1.667 -1.667 0.92 -1.667 0 C
-1.667 -0.92 -0.92 -1.667 0 -1.667 C
0.92 -1.667 1.667 -0.92 1.667 0 C
cp
f
GR
GS
[1 0 0 1 132.01241 72.74299] CT
0 0.447 0.741 RC
N
1.667 0 M
1.667 0.92 0.92 1.667 0 1.667 C
-0.92 1.667 -1.667 0.92 -1.667 0 C
-1.667 -0.92 -0.92 -1.667 0 -1.667 C
0.92 -1.667 1.667 -0.92 1.667 0 C
cp
f
GR
GS
[1 0 0 1 136.98187 74.31078] CT
0 0.447 0.741 RC
N
1.667 0 M
1.667 0.92 0.92 1.667 0 1.667 C
-0.92 1.667 -1.667 0.92 -1.667 0 C
-1.667 -0.92 -0.92 -1.667 0 -1.667 C
0.92 -1.667 1.667 -0.92 1.667 0 C
cp
f
GR
GS
[1 0 0 1 141.33015 69.50038] CT
0 0.447 0.741 RC
N
1.667 0 M
1.667 0.92 0.92 1.667 0 1.667 C
-0.92 1.667 -1.667 0.92 -1.667 0 C
-1.667 -0.92 -0.92 -1.667 0 -1.667 C
0.92 -1.667 1.667 -0.92 1.667 0 C
cp
f
GR
GS
[1 0 0 1 145.26431 72.74299] CT
0 0.447 0.741 RC
N
1.667 0 M
1.667 0.92 0.92 1.667 0 1.667 C
-0.92 1.667 -1.667 0.92 -1.667 0 C
-1.667 -0.92 -0.92 -1.667 0 -1.667 C
0.92 -1.667 1.667 -0.92 1.667 0 C
cp
f
GR
GS
[1 0 0 1 149.61259 75.98562] CT
0 0.447 0.741 RC
N
1.667 0 M
1.667 0.92 0.92 1.667 0 1.667 C
-0.92 1.667 -1.667 0.92 -1.667 0 C
-1.667 -0.92 -0.92 -1.667 0 -1.667 C
0.92 -1.667 1.667 -0.92 1.667 0 C
cp
f
GR
GS
[1 0 0 1 153.75381 86.61853] CT
0 0.447 0.741 RC
N
1.667 0 M
1.667 0.92 0.92 1.667 0 1.667 C
-0.92 1.667 -1.667 0.92 -1.667 0 C
-1.667 -0.92 -0.92 -1.667 0 -1.667 C
0.92 -1.667 1.667 -0.92 1.667 0 C
cp
f
GR
GS
[1 0 0 1 157.68797 94.68698] CT
0 0.447 0.741 RC
N
1.667 0 M
1.667 0.92 0.92 1.667 0 1.667 C
-0.92 1.667 -1.667 0.92 -1.667 0 C
-1.667 -0.92 -0.92 -1.667 0 -1.667 C
0.92 -1.667 1.667 -0.92 1.667 0 C
cp
f
GR
GS
[1 0 0 1 162.03625 112.82747] CT
0 0.447 0.741 RC
N
1.667 0 M
1.667 0.92 0.92 1.667 0 1.667 C
-0.92 1.667 -1.667 0.92 -1.667 0 C
-1.667 -0.92 -0.92 -1.667 0 -1.667 C
0.92 -1.667 1.667 -0.92 1.667 0 C
cp
f
GR
GS
[1 0 0 1 166.5916 129.78636] CT
0 0.447 0.741 RC
N
1.667 0 M
1.667 0.92 0.92 1.667 0 1.667 C
-0.92 1.667 -1.667 0.92 -1.667 0 C
-1.667 -0.92 -0.92 -1.667 0 -1.667 C
0.92 -1.667 1.667 -0.92 1.667 0 C
cp
f
GR
GS
[1 0 0 1 170.73282 151.11385] CT
0 0.447 0.741 RC
N
1.667 0 M
1.667 0.92 0.92 1.667 0 1.667 C
-0.92 1.667 -1.667 0.92 -1.667 0 C
-1.667 -0.92 -0.92 -1.667 0 -1.667 C
0.92 -1.667 1.667 -0.92 1.667 0 C
cp
f
GR
GS
[1 0 0 1 174.66698 177.57968] CT
0 0.447 0.741 RC
N
1.667 0 M
1.667 0.92 0.92 1.667 0 1.667 C
-0.92 1.667 -1.667 0.92 -1.667 0 C
-1.667 -0.92 -0.92 -1.667 0 -1.667 C
0.92 -1.667 1.667 -0.92 1.667 0 C
cp
f
GR
GS
[1 0 0 1 179.22234 208.41409] CT
0 0.447 0.741 RC
N
1.667 0 M
1.667 0.92 0.92 1.667 0 1.667 C
-0.92 1.667 -1.667 0.92 -1.667 0 C
-1.667 -0.92 -0.92 -1.667 0 -1.667 C
0.92 -1.667 1.667 -0.92 1.667 0 C
cp
f
GR
GS
[1 0 0 1 183.5706 239.59615] CT
0 0.447 0.741 RC
N
1.667 0 M
1.667 0.92 0.92 1.667 0 1.667 C
-0.92 1.667 -1.667 0.92 -1.667 0 C
-1.667 -0.92 -0.92 -1.667 0 -1.667 C
0.92 -1.667 1.667 -0.92 1.667 0 C
cp
f
GR
GS
[1 0 0 1 187.9189 288.39639] CT
0 0.447 0.741 RC
N
1.667 0 M
1.667 0.92 0.92 1.667 0 1.667 C
-0.92 1.667 -1.667 0.92 -1.667 0 C
-1.667 -0.92 -0.92 -1.667 0 -1.667 C
0.92 -1.667 1.667 -0.92 1.667 0 C
cp
f
GR
GS
[1 0 0 1 191.85306 309.37112] CT
0 0.447 0.741 RC
N
1.667 0 M
1.667 0.92 0.92 1.667 0 1.667 C
-0.92 1.667 -1.667 0.92 -1.667 0 C
-1.667 -0.92 -0.92 -1.667 0 -1.667 C
0.92 -1.667 1.667 -0.92 1.667 0 C
cp
f
GR
GS
[1 0 0 1 195.99428 354.87653] CT
0 0.447 0.741 RC
N
1.667 0 M
1.667 0.92 0.92 1.667 0 1.667 C
-0.92 1.667 -1.667 0.92 -1.667 0 C
-1.667 -0.92 -0.92 -1.667 0 -1.667 C
0.92 -1.667 1.667 -0.92 1.667 0 C
cp
f
GR
GS
[1 0 0 1 200.34256 359.57819] CT
0 0.447 0.741 RC
N
1.667 0 M
1.667 0.92 0.92 1.667 0 1.667 C
-0.92 1.667 -1.667 0.92 -1.667 0 C
-1.667 -0.92 -0.92 -1.667 0 -1.667 C
0.92 -1.667 1.667 -0.92 1.667 0 C
cp
f
GR
GS
[1 0 0 1 204.48378 326.18442] CT
0 0.447 0.741 RC
N
1.667 0 M
1.667 0.92 0.92 1.667 0 1.667 C
-0.92 1.667 -1.667 0.92 -1.667 0 C
-1.667 -0.92 -0.92 -1.667 0 -1.667 C
0.92 -1.667 1.667 -0.92 1.667 0 C
cp
f
GR
GS
[1 0 0 1 208.83206 303.86884] CT
0 0.447 0.741 RC
N
1.667 0 M
1.667 0.92 0.92 1.667 0 1.667 C
-0.92 1.667 -1.667 0.92 -1.667 0 C
-1.667 -0.92 -0.92 -1.667 0 -1.667 C
0.92 -1.667 1.667 -0.92 1.667 0 C
cp
f
GR
GS
[1 0 0 1 213.38741 273.16544] CT
0 0.447 0.741 RC
N
1.667 0 M
1.667 0.92 0.92 1.667 0 1.667 C
-0.92 1.667 -1.667 0.92 -1.667 0 C
-1.667 -0.92 -0.92 -1.667 0 -1.667 C
0.92 -1.667 1.667 -0.92 1.667 0 C
cp
f
GR
GS
[1 0 0 1 217.32156 247.17996] CT
0 0.447 0.741 RC
N
1.667 0 M
1.667 0.92 0.92 1.667 0 1.667 C
-0.92 1.667 -1.667 0.92 -1.667 0 C
-1.667 -0.92 -0.92 -1.667 0 -1.667 C
0.92 -1.667 1.667 -0.92 1.667 0 C
cp
f
GR
GS
[1 0 0 1 221.66985 228.45634] CT
0 0.447 0.741 RC
N
1.667 0 M
1.667 0.92 0.92 1.667 0 1.667 C
-0.92 1.667 -1.667 0.92 -1.667 0 C
-1.667 -0.92 -0.92 -1.667 0 -1.667 C
0.92 -1.667 1.667 -0.92 1.667 0 C
cp
f
GR
GS
[1 0 0 1 225.81107 212.29291] CT
0 0.447 0.741 RC
N
1.667 0 M
1.667 0.92 0.92 1.667 0 1.667 C
-0.92 1.667 -1.667 0.92 -1.667 0 C
-1.667 -0.92 -0.92 -1.667 0 -1.667 C
0.92 -1.667 1.667 -0.92 1.667 0 C
cp
f
GR
GS
[1 0 0 1 230.15935 198.64085] CT
0 0.447 0.741 RC
N
1.667 0 M
1.667 0.92 0.92 1.667 0 1.667 C
-0.92 1.667 -1.667 0.92 -1.667 0 C
-1.667 -0.92 -0.92 -1.667 0 -1.667 C
0.92 -1.667 1.667 -0.92 1.667 0 C
cp
f
GR
GS
[1 0 0 1 234.30057 186.19356] CT
0 0.447 0.741 RC
N
1.667 0 M
1.667 0.92 0.92 1.667 0 1.667 C
-0.92 1.667 -1.667 0.92 -1.667 0 C
-1.667 -0.92 -0.92 -1.667 0 -1.667 C
0.92 -1.667 1.667 -0.92 1.667 0 C
cp
f
GR
GS
[1 0 0 1 238.85591 181.95596] CT
0 0.447 0.741 RC
N
1.667 0 M
1.667 0.92 0.92 1.667 0 1.667 C
-0.92 1.667 -1.667 0.92 -1.667 0 C
-1.667 -0.92 -0.92 -1.667 0 -1.667 C
0.92 -1.667 1.667 -0.92 1.667 0 C
cp
f
GR
GS
[1 0 0 1 242.79007 180.43869] CT
0 0.447 0.741 RC
N
1.667 0 M
1.667 0.92 0.92 1.667 0 1.667 C
-0.92 1.667 -1.667 0.92 -1.667 0 C
-1.667 -0.92 -0.92 -1.667 0 -1.667 C
0.92 -1.667 1.667 -0.92 1.667 0 C
cp
f
GR
GS
[1 0 0 1 247.13837 177.23717] CT
0 0.447 0.741 RC
N
1.667 0 M
1.667 0.92 0.92 1.667 0 1.667 C
-0.92 1.667 -1.667 0.92 -1.667 0 C
-1.667 -0.92 -0.92 -1.667 0 -1.667 C
0.92 -1.667 1.667 -0.92 1.667 0 C
cp
f
GR
GS
[1 0 0 1 251.48663 183.20781] CT
0 0.447 0.741 RC
N
1.667 0 M
1.667 0.92 0.92 1.667 0 1.667 C
-0.92 1.667 -1.667 0.92 -1.667 0 C
-1.667 -0.92 -0.92 -1.667 0 -1.667 C
0.92 -1.667 1.667 -0.92 1.667 0 C
cp
f
GR
GS
[1 0 0 1 255.83493 188.02335] CT
0 0.447 0.741 RC
N
1.667 0 M
1.667 0.92 0.92 1.667 0 1.667 C
-0.92 1.667 -1.667 0.92 -1.667 0 C
-1.667 -0.92 -0.92 -1.667 0 -1.667 C
0.92 -1.667 1.667 -0.92 1.667 0 C
cp
f
GR
GS
[1 0 0 1 259.97614 200.15814] CT
0 0.447 0.741 RC
N
1.667 0 M
1.667 0.92 0.92 1.667 0 1.667 C
-0.92 1.667 -1.667 0.92 -1.667 0 C
-1.667 -0.92 -0.92 -1.667 0 -1.667 C
0.92 -1.667 1.667 -0.92 1.667 0 C
cp
f
GR
GS
[1 0 0 1 264.11737 211.57022] CT
0 0.447 0.741 RC
N
1.667 0 M
1.667 0.92 0.92 1.667 0 1.667 C
-0.92 1.667 -1.667 0.92 -1.667 0 C
-1.667 -0.92 -0.92 -1.667 0 -1.667 C
0.92 -1.667 1.667 -0.92 1.667 0 C
cp
f
GR
GS
[1 0 0 1 268.46564 233.08095] CT
0 0.447 0.741 RC
N
1.667 0 M
1.667 0.92 0.92 1.667 0 1.667 C
-0.92 1.667 -1.667 0.92 -1.667 0 C
-1.667 -0.92 -0.92 -1.667 0 -1.667 C
0.92 -1.667 1.667 -0.92 1.667 0 C
cp
f
GR
GS
[1 0 0 1 273.021 254.6653] CT
0 0.447 0.741 RC
N
1.667 0 M
1.667 0.92 0.92 1.667 0 1.667 C
-0.92 1.667 -1.667 0.92 -1.667 0 C
-1.667 -0.92 -0.92 -1.667 0 -1.667 C
0.92 -1.667 1.667 -0.92 1.667 0 C
cp
f
GR
GS
[1 0 0 1 276.95517 276.00046] CT
0 0.447 0.741 RC
N
1.667 0 M
1.667 0.92 0.92 1.667 0 1.667 C
-0.92 1.667 -1.667 0.92 -1.667 0 C
-1.667 -0.92 -0.92 -1.667 0 -1.667 C
0.92 -1.667 1.667 -0.92 1.667 0 C
cp
f
GR
GS
[1 0 0 1 281.09637 310.16656] CT
0 0.447 0.741 RC
N
1.667 0 M
1.667 0.92 0.92 1.667 0 1.667 C
-0.92 1.667 -1.667 0.92 -1.667 0 C
-1.667 -0.92 -0.92 -1.667 0 -1.667 C
0.92 -1.667 1.667 -0.92 1.667 0 C
cp
f
GR
GS
[1 0 0 1 285.44467 336.67435] CT
0 0.447 0.741 RC
N
1.667 0 M
1.667 0.92 0.92 1.667 0 1.667 C
-0.92 1.667 -1.667 0.92 -1.667 0 C
-1.667 -0.92 -0.92 -1.667 0 -1.667 C
0.92 -1.667 1.667 -0.92 1.667 0 C
cp
f
GR
GS
[1 0 0 1 289.58588 368.75204] CT
0 0.447 0.741 RC
N
1.667 0 M
1.667 0.92 0.92 1.667 0 1.667 C
-0.92 1.667 -1.667 0.92 -1.667 0 C
-1.667 -0.92 -0.92 -1.667 0 -1.667 C
0.92 -1.667 1.667 -0.92 1.667 0 C
cp
f
GR
GS
[1 0 0 1 293.93417 356.41776] CT
0 0.447 0.741 RC
N
1.667 0 M
1.667 0.92 0.92 1.667 0 1.667 C
-0.92 1.667 -1.667 0.92 -1.667 0 C
-1.667 -0.92 -0.92 -1.667 0 -1.667 C
0.92 -1.667 1.667 -0.92 1.667 0 C
cp
f
GR
GS
[1 0 0 1 298.28244 326.5141] CT
0 0.447 0.741 RC
N
1.667 0 M
1.667 0.92 0.92 1.667 0 1.667 C
-0.92 1.667 -1.667 0.92 -1.667 0 C
-1.667 -0.92 -0.92 -1.667 0 -1.667 C
0.92 -1.667 1.667 -0.92 1.667 0 C
cp
f
GR
GS
[1 0 0 1 302.42368 308.60049] CT
0 0.447 0.741 RC
N
1.667 0 M
1.667 0.92 0.92 1.667 0 1.667 C
-0.92 1.667 -1.667 0.92 -1.667 0 C
-1.667 -0.92 -0.92 -1.667 0 -1.667 C
0.92 -1.667 1.667 -0.92 1.667 0 C
cp
f
GR
GS
[1 0 0 1 306.77194 292.68536] CT
0 0.447 0.741 RC
N
1.667 0 M
1.667 0.92 0.92 1.667 0 1.667 C
-0.92 1.667 -1.667 0.92 -1.667 0 C
-1.667 -0.92 -0.92 -1.667 0 -1.667 C
0.92 -1.667 1.667 -0.92 1.667 0 C
cp
f
GR
GS
[1 0 0 1 310.91318 272.77411] CT
0 0.447 0.741 RC
N
1.667 0 M
1.667 0.92 0.92 1.667 0 1.667 C
-0.92 1.667 -1.667 0.92 -1.667 0 C
-1.667 -0.92 -0.92 -1.667 0 -1.667 C
0.92 -1.667 1.667 -0.92 1.667 0 C
cp
f
GR
GS
[1 0 0 1 315.26144 259.33871] CT
0 0.447 0.741 RC
N
1.667 0 M
1.667 0.92 0.92 1.667 0 1.667 C
-0.92 1.667 -1.667 0.92 -1.667 0 C
-1.667 -0.92 -0.92 -1.667 0 -1.667 C
0.92 -1.667 1.667 -0.92 1.667 0 C
cp
f
GR
GS
[1 0 0 1 319.40268 249.07655] CT
0 0.447 0.741 RC
N
1.667 0 M
1.667 0.92 0.92 1.667 0 1.667 C
-0.92 1.667 -1.667 0.92 -1.667 0 C
-1.667 -0.92 -0.92 -1.667 0 -1.667 C
0.92 -1.667 1.667 -0.92 1.667 0 C
cp
f
GR
GS
[1 0 0 1 323.95801 243.46982] CT
0 0.447 0.741 RC
N
1.667 0 M
1.667 0.92 0.92 1.667 0 1.667 C
-0.92 1.667 -1.667 0.92 -1.667 0 C
-1.667 -0.92 -0.92 -1.667 0 -1.667 C
0.92 -1.667 1.667 -0.92 1.667 0 C
cp
f
GR
GS
[1 0 0 1 327.89215 241.72906] CT
0 0.447 0.741 RC
N
1.667 0 M
1.667 0.92 0.92 1.667 0 1.667 C
-0.92 1.667 -1.667 0.92 -1.667 0 C
-1.667 -0.92 -0.92 -1.667 0 -1.667 C
0.92 -1.667 1.667 -0.92 1.667 0 C
cp
f
GR
GS
[1 0 0 1 332.24045 239.12949] CT
0 0.447 0.741 RC
N
1.667 0 M
1.667 0.92 0.92 1.667 0 1.667 C
-0.92 1.667 -1.667 0.92 -1.667 0 C
-1.667 -0.92 -0.92 -1.667 0 -1.667 C
0.92 -1.667 1.667 -0.92 1.667 0 C
cp
f
GR
GS
[1 0 0 1 336.58875 246.13705] CT
0 0.447 0.741 RC
N
1.667 0 M
1.667 0.92 0.92 1.667 0 1.667 C
-0.92 1.667 -1.667 0.92 -1.667 0 C
-1.667 -0.92 -0.92 -1.667 0 -1.667 C
0.92 -1.667 1.667 -0.92 1.667 0 C
cp
f
GR
GS
[1 0 0 1 341.14407 250.70428] CT
0 0.447 0.741 RC
N
1.667 0 M
1.667 0.92 0.92 1.667 0 1.667 C
-0.92 1.667 -1.667 0.92 -1.667 0 C
-1.667 -0.92 -0.92 -1.667 0 -1.667 C
0.92 -1.667 1.667 -0.92 1.667 0 C
cp
f
GR
GS
[1 0 0 1 345.07825 263.77066] CT
0 0.447 0.741 RC
N
1.667 0 M
1.667 0.92 0.92 1.667 0 1.667 C
-0.92 1.667 -1.667 0.92 -1.667 0 C
-1.667 -0.92 -0.92 -1.667 0 -1.667 C
0.92 -1.667 1.667 -0.92 1.667 0 C
cp
f
GR
GS
[1 0 0 1 349.21945 278.46561] CT
0 0.447 0.741 RC
N
1.667 0 M
1.667 0.92 0.92 1.667 0 1.667 C
-0.92 1.667 -1.667 0.92 -1.667 0 C
-1.667 -0.92 -0.92 -1.667 0 -1.667 C
0.92 -1.667 1.667 -0.92 1.667 0 C
cp
f
GR
GS
[1 0 0 1 353.56775 296.09836] CT
0 0.447 0.741 RC
N
1.667 0 M
1.667 0.92 0.92 1.667 0 1.667 C
-0.92 1.667 -1.667 0.92 -1.667 0 C
-1.667 -0.92 -0.92 -1.667 0 -1.667 C
0.92 -1.667 1.667 -0.92 1.667 0 C
cp
f
GR
GS
[1 0 0 1 357.70898 313.73199] CT
0 0.447 0.741 RC
N
1.667 0 M
1.667 0.92 0.92 1.667 0 1.667 C
-0.92 1.667 -1.667 0.92 -1.667 0 C
-1.667 -0.92 -0.92 -1.667 0 -1.667 C
0.92 -1.667 1.667 -0.92 1.667 0 C
cp
f
GR
GS
[1 0 0 1 362.26431 340.18155] CT
0 0.447 0.741 RC
N
1.667 0 M
1.667 0.92 0.92 1.667 0 1.667 C
-0.92 1.667 -1.667 0.92 -1.667 0 C
-1.667 -0.92 -0.92 -1.667 0 -1.667 C
0.92 -1.667 1.667 -0.92 1.667 0 C
cp
f
GR
GS
[1 0 0 1 366.61258 363.69333] CT
0 0.447 0.741 RC
N
1.667 0 M
1.667 0.92 0.92 1.667 0 1.667 C
-0.92 1.667 -1.667 0.92 -1.667 0 C
-1.667 -0.92 -0.92 -1.667 0 -1.667 C
0.92 -1.667 1.667 -0.92 1.667 0 C
cp
f
GR
GS
[1 0 0 1 370.54675 356.34583] CT
0 0.447 0.741 RC
N
1.667 0 M
1.667 0.92 0.92 1.667 0 1.667 C
-0.92 1.667 -1.667 0.92 -1.667 0 C
-1.667 -0.92 -0.92 -1.667 0 -1.667 C
0.92 -1.667 1.667 -0.92 1.667 0 C
cp
f
GR
GS
[1 0 0 1 374.89502 338.71222] CT
0 0.447 0.741 RC
N
1.667 0 M
1.667 0.92 0.92 1.667 0 1.667 C
-0.92 1.667 -1.667 0.92 -1.667 0 C
-1.667 -0.92 -0.92 -1.667 0 -1.667 C
0.92 -1.667 1.667 -0.92 1.667 0 C
cp
f
GR
GS
[1 0 0 1 379.45038 313.55389] CT
0 0.447 0.741 RC
N
1.667 0 M
1.667 0.92 0.92 1.667 0 1.667 C
-0.92 1.667 -1.667 0.92 -1.667 0 C
-1.667 -0.92 -0.92 -1.667 0 -1.667 C
0.92 -1.667 1.667 -0.92 1.667 0 C
cp
f
GR
GS
[1 0 0 1 383.38452 306.38449] CT
0 0.447 0.741 RC
N
1.667 0 M
1.667 0.92 0.92 1.667 0 1.667 C
-0.92 1.667 -1.667 0.92 -1.667 0 C
-1.667 -0.92 -0.92 -1.667 0 -1.667 C
0.92 -1.667 1.667 -0.92 1.667 0 C
cp
f
GR
GS
[1 0 0 1 387.93988 296.09836] CT
0 0.447 0.741 RC
N
1.667 0 M
1.667 0.92 0.92 1.667 0 1.667 C
-0.92 1.667 -1.667 0.92 -1.667 0 C
-1.667 -0.92 -0.92 -1.667 0 -1.667 C
0.92 -1.667 1.667 -0.92 1.667 0 C
cp
f
GR
GS
[1 0 0 1 392.08112 287.28156] CT
0 0.447 0.741 RC
N
1.667 0 M
1.667 0.92 0.92 1.667 0 1.667 C
-0.92 1.667 -1.667 0.92 -1.667 0 C
-1.667 -0.92 -0.92 -1.667 0 -1.667 C
0.92 -1.667 1.667 -0.92 1.667 0 C
cp
f
GR
GS
[1 0 0 1 396.01526 281.08746] CT
0 0.447 0.741 RC
N
1.667 0 M
1.667 0.92 0.92 1.667 0 1.667 C
-0.92 1.667 -1.667 0.92 -1.667 0 C
-1.667 -0.92 -0.92 -1.667 0 -1.667 C
0.92 -1.667 1.667 -0.92 1.667 0 C
cp
f
GR
GS
[1 0 0 1 400.36356 279.93494] CT
0 0.447 0.741 RC
N
1.667 0 M
1.667 0.92 0.92 1.667 0 1.667 C
-0.92 1.667 -1.667 0.92 -1.667 0 C
-1.667 -0.92 -0.92 -1.667 0 -1.667 C
0.92 -1.667 1.667 -0.92 1.667 0 C
cp
f
GR
GS
[1 0 0 1 404.91891 278.19418] CT
0 0.447 0.741 RC
N
1.667 0 M
1.667 0.92 0.92 1.667 0 1.667 C
-0.92 1.667 -1.667 0.92 -1.667 0 C
-1.667 -0.92 -0.92 -1.667 0 -1.667 C
0.92 -1.667 1.667 -0.92 1.667 0 C
cp
f
GR
GS
[1 0 0 1 409.6813 284.34293] CT
0 0.447 0.741 RC
N
1.667 0 M
1.667 0.92 0.92 1.667 0 1.667 C
-0.92 1.667 -1.667 0.92 -1.667 0 C
-1.667 -0.92 -0.92 -1.667 0 -1.667 C
0.92 -1.667 1.667 -0.92 1.667 0 C
cp
f
GR
GS
[1 0 0 1 413.40842 291.21518] CT
0 0.447 0.741 RC
N
1.667 0 M
1.667 0.92 0.92 1.667 0 1.667 C
-0.92 1.667 -1.667 0.92 -1.667 0 C
-1.667 -0.92 -0.92 -1.667 0 -1.667 C
0.92 -1.667 1.667 -0.92 1.667 0 C
cp
f
GR
GS
[1 0 0 1 417.34256 302.78998] CT
0 0.447 0.741 RC
N
1.667 0 M
1.667 0.92 0.92 1.667 0 1.667 C
-0.92 1.667 -1.667 0.92 -1.667 0 C
-1.667 -0.92 -0.92 -1.667 0 -1.667 C
0.92 -1.667 1.667 -0.92 1.667 0 C
cp
f
GR
GS
[1 0 0 1 421.69086 314.36475] CT
0 0.447 0.741 RC
N
1.667 0 M
1.667 0.92 0.92 1.667 0 1.667 C
-0.92 1.667 -1.667 0.92 -1.667 0 C
-1.667 -0.92 -0.92 -1.667 0 -1.667 C
0.92 -1.667 1.667 -0.92 1.667 0 C
cp
f
GR
GS
[1 0 0 1 425.83206 334.62021] CT
0 0.447 0.741 RC
N
1.667 0 M
1.667 0.92 0.92 1.667 0 1.667 C
-0.92 1.667 -1.667 0.92 -1.667 0 C
-1.667 -0.92 -0.92 -1.667 0 -1.667 C
0.92 -1.667 1.667 -0.92 1.667 0 C
cp
f
GR
GS
[1 0 0 1 430.18036 357.81516] CT
0 0.447 0.741 RC
N
1.667 0 M
1.667 0.92 0.92 1.667 0 1.667 C
-0.92 1.667 -1.667 0.92 -1.667 0 C
-1.667 -0.92 -0.92 -1.667 0 -1.667 C
0.92 -1.667 1.667 -0.92 1.667 0 C
cp
f
GR
GS
[1 0 0 1 434.94275 372.50928] CT
0 0.447 0.741 RC
N
1.667 0 M
1.667 0.92 0.92 1.667 0 1.667 C
-0.92 1.667 -1.667 0.92 -1.667 0 C
-1.667 -0.92 -0.92 -1.667 0 -1.667 C
0.92 -1.667 1.667 -0.92 1.667 0 C
cp
f
GR
GS
[1 0 0 1 438.66986 351.98239] CT
0 0.447 0.741 RC
N
1.667 0 M
1.667 0.92 0.92 1.667 0 1.667 C
-0.92 1.667 -1.667 0.92 -1.667 0 C
-1.667 -0.92 -0.92 -1.667 0 -1.667 C
0.92 -1.667 1.667 -0.92 1.667 0 C
cp
f
GR
GS
[1 0 0 1 443.22519 336.06726] CT
0 0.447 0.741 RC
N
1.667 0 M
1.667 0.92 0.92 1.667 0 1.667 C
-0.92 1.667 -1.667 0.92 -1.667 0 C
-1.667 -0.92 -0.92 -1.667 0 -1.667 C
0.92 -1.667 1.667 -0.92 1.667 0 C
cp
f
GR
GS
[1 0 0 1 447.15936 320.15216] CT
0 0.447 0.741 RC
N
1.667 0 M
1.667 0.92 0.92 1.667 0 1.667 C
-0.92 1.667 -1.667 0.92 -1.667 0 C
-1.667 -0.92 -0.92 -1.667 0 -1.667 C
0.92 -1.667 1.667 -0.92 1.667 0 C
cp
f
GR
GS
[1 0 0 1 451.50763 312.12909] CT
0 0.447 0.741 RC
N
1.667 0 M
1.667 0.92 0.92 1.667 0 1.667 C
-0.92 1.667 -1.667 0.92 -1.667 0 C
-1.667 -0.92 -0.92 -1.667 0 -1.667 C
0.92 -1.667 1.667 -0.92 1.667 0 C
cp
f
GR
GS
[1 0 0 1 455.64886 303.57944] CT
0 0.447 0.741 RC
N
1.667 0 M
1.667 0.92 0.92 1.667 0 1.667 C
-0.92 1.667 -1.667 0.92 -1.667 0 C
-1.667 -0.92 -0.92 -1.667 0 -1.667 C
0.92 -1.667 1.667 -0.92 1.667 0 C
cp
f
GR
GS
[1 0 0 1 460.20419 299.30417] CT
0 0.447 0.741 RC
N
1.667 0 M
1.667 0.92 0.92 1.667 0 1.667 C
-0.92 1.667 -1.667 0.92 -1.667 0 C
-1.667 -0.92 -0.92 -1.667 0 -1.667 C
0.92 -1.667 1.667 -0.92 1.667 0 C
cp
f
GR
GS
[1 0 0 1 464.55249 302.78998] CT
0 0.447 0.741 RC
N
1.667 0 M
1.667 0.92 0.92 1.667 0 1.667 C
-0.92 1.667 -1.667 0.92 -1.667 0 C
-1.667 -0.92 -0.92 -1.667 0 -1.667 C
0.92 -1.667 1.667 -0.92 1.667 0 C
cp
f
GR
GS
[1 0 0 1 468.6937 302.15463] CT
0 0.447 0.741 RC
N
1.667 0 M
1.667 0.92 0.92 1.667 0 1.667 C
-0.92 1.667 -1.667 0.92 -1.667 0 C
-1.667 -0.92 -0.92 -1.667 0 -1.667 C
0.92 -1.667 1.667 -0.92 1.667 0 C
cp
f
GR
GS
[1 0 0 1 472.62784 306.42902] CT
0 0.447 0.741 RC
N
1.667 0 M
1.667 0.92 0.92 1.667 0 1.667 C
-0.92 1.667 -1.667 0.92 -1.667 0 C
-1.667 -0.92 -0.92 -1.667 0 -1.667 C
0.92 -1.667 1.667 -0.92 1.667 0 C
cp
f
GR
GS
[1 0 0 1 477.1832 321.59921] CT
0 0.447 0.741 RC
N
1.667 0 M
1.667 0.92 0.92 1.667 0 1.667 C
-0.92 1.667 -1.667 0.92 -1.667 0 C
-1.667 -0.92 -0.92 -1.667 0 -1.667 C
0.92 -1.667 1.667 -0.92 1.667 0 C
cp
f
GR
GS
[1 0 0 1 481.11737 331.72693] CT
0 0.447 0.741 RC
N
1.667 0 M
1.667 0.92 0.92 1.667 0 1.667 C
-0.92 1.667 -1.667 0.92 -1.667 0 C
-1.667 -0.92 -0.92 -1.667 0 -1.667 C
0.92 -1.667 1.667 -0.92 1.667 0 C
cp
f
GR
GS
[1 0 0 1 485.46564 347.52902] CT
0 0.447 0.741 RC
N
1.667 0 M
1.667 0.92 0.92 1.667 0 1.667 C
-0.92 1.667 -1.667 0.92 -1.667 0 C
-1.667 -0.92 -0.92 -1.667 0 -1.667 C
0.92 -1.667 1.667 -0.92 1.667 0 C
cp
f
GR
GS
[1 0 0 1 490.02097 368.10129] CT
0 0.447 0.741 RC
N
1.667 0 M
1.667 0.92 0.92 1.667 0 1.667 C
-0.92 1.667 -1.667 0.92 -1.667 0 C
-1.667 -0.92 -0.92 -1.667 0 -1.667 C
0.92 -1.667 1.667 -0.92 1.667 0 C
cp
f
GR
GS
[1 0 0 1 494.1622 366.63196] CT
0 0.447 0.741 RC
N
1.667 0 M
1.667 0.92 0.92 1.667 0 1.667 C
-0.92 1.667 -1.667 0.92 -1.667 0 C
-1.667 -0.92 -0.92 -1.667 0 -1.667 C
0.92 -1.667 1.667 -0.92 1.667 0 C
cp
f
GR
GS
[1 0 0 1 498.92459 346.19501] CT
0 0.447 0.741 RC
N
1.667 0 M
1.667 0.92 0.92 1.667 0 1.667 C
-0.92 1.667 -1.667 0.92 -1.667 0 C
-1.667 -0.92 -0.92 -1.667 0 -1.667 C
0.92 -1.667 1.667 -0.92 1.667 0 C
cp
f
GR
GS
[1 0 0 1 502.85876 340.18155] CT
0 0.447 0.741 RC
N
1.667 0 M
1.667 0.92 0.92 1.667 0 1.667 C
-0.92 1.667 -1.667 0.92 -1.667 0 C
-1.667 -0.92 -0.92 -1.667 0 -1.667 C
0.92 -1.667 1.667 -0.92 1.667 0 C
cp
f
GR
GS
[1 0 0 1 507 331.36475] CT
0 0.447 0.741 RC
N
1.667 0 M
1.667 0.92 0.92 1.667 0 1.667 C
-0.92 1.667 -1.667 0.92 -1.667 0 C
-1.667 -0.92 -0.92 -1.667 0 -1.667 C
0.92 -1.667 1.667 -0.92 1.667 0 C
cp
f
GR
%%Trailer
%%Pages: 1
%%EOF
