%!PS-Adobe-3.0 EPSF-3.0
%%Creator: (MATLAB, The Mathworks, Inc. Version 9.0.0.341360 \(R2016a\). Operating System: Mac OS X)
%%Title: (/Users/bccho/Documents/Princeton/Year 3/Spring 2017/ELE 302/independent_project/writeup/images/fig_transform.eps)
%%CreationDate: 2017-05-19T14:51:29
%%Pages: (atend)
%%BoundingBox: 0 0 560 420
%%LanguageLevel: 3
%%EndComments
%%BeginProlog
%%BeginResource: procset (Apache XML Graphics Std ProcSet) 1.2 0
%%Version: 1.2 0
%%Copyright: (Copyright 2001-2003,2010 The Apache Software Foundation. License terms: http://www.apache.org/licenses/LICENSE-2.0)
/bd{bind def}bind def
/ld{load def}bd
/GR/grestore ld
/M/moveto ld
/LJ/setlinejoin ld
/C/curveto ld
/f/fill ld
/LW/setlinewidth ld
/GC/setgray ld
/t/show ld
/N/newpath ld
/CT/concat ld
/cp/closepath ld
/S/stroke ld
/L/lineto ld
/CC/setcmykcolor ld
/A/ashow ld
/GS/gsave ld
/RC/setrgbcolor ld
/RM/rmoveto ld
/ML/setmiterlimit ld
/re {4 2 roll M
1 index 0 rlineto
0 exch rlineto
neg 0 rlineto
cp } bd
/_ctm matrix def
/_tm matrix def
/BT { _ctm currentmatrix pop matrix _tm copy pop 0 0 moveto } bd
/ET { _ctm setmatrix } bd
/iTm { _ctm setmatrix _tm concat } bd
/Tm { _tm astore pop iTm 0 0 moveto } bd
/ux 0.0 def
/uy 0.0 def
/F {
  /Tp exch def
  /Tf exch def
  Tf findfont Tp scalefont setfont
  /cf Tf def  /cs Tp def
} bd
/ULS {currentpoint /uy exch def /ux exch def} bd
/ULE {
  /Tcx currentpoint pop def
  gsave
  newpath
  cf findfont cs scalefont dup
  /FontMatrix get 0 get /Ts exch def /FontInfo get dup
  /UnderlinePosition get Ts mul /To exch def
  /UnderlineThickness get Ts mul /Tt exch def
  ux uy To add moveto  Tcx uy To add lineto
  Tt setlinewidth stroke
  grestore
} bd
/OLE {
  /Tcx currentpoint pop def
  gsave
  newpath
  cf findfont cs scalefont dup
  /FontMatrix get 0 get /Ts exch def /FontInfo get dup
  /UnderlinePosition get Ts mul /To exch def
  /UnderlineThickness get Ts mul /Tt exch def
  ux uy To add cs add moveto Tcx uy To add cs add lineto
  Tt setlinewidth stroke
  grestore
} bd
/SOE {
  /Tcx currentpoint pop def
  gsave
  newpath
  cf findfont cs scalefont dup
  /FontMatrix get 0 get /Ts exch def /FontInfo get dup
  /UnderlinePosition get Ts mul /To exch def
  /UnderlineThickness get Ts mul /Tt exch def
  ux uy To add cs 10 mul 26 idiv add moveto Tcx uy To add cs 10 mul 26 idiv add lineto
  Tt setlinewidth stroke
  grestore
} bd
/QT {
/Y22 exch store
/X22 exch store
/Y21 exch store
/X21 exch store
currentpoint
/Y21 load 2 mul add 3 div exch
/X21 load 2 mul add 3 div exch
/X21 load 2 mul /X22 load add 3 div
/Y21 load 2 mul /Y22 load add 3 div
/X22 load /Y22 load curveto
} bd
/SSPD {
dup length /d exch dict def
{
/v exch def
/k exch def
currentpagedevice k known {
/cpdv currentpagedevice k get def
v cpdv ne {
/upd false def
/nullv v type /nulltype eq def
/nullcpdv cpdv type /nulltype eq def
nullv nullcpdv or
{
/upd true def
} {
/sametype v type cpdv type eq def
sametype {
v type /arraytype eq {
/vlen v length def
/cpdvlen cpdv length def
vlen cpdvlen eq {
0 1 vlen 1 sub {
/i exch def
/obj v i get def
/cpdobj cpdv i get def
obj cpdobj ne {
/upd true def
exit
} if
} for
} {
/upd true def
} ifelse
} {
v type /dicttype eq {
v {
/dv exch def
/dk exch def
/cpddv cpdv dk get def
dv cpddv ne {
/upd true def
exit
} if
} forall
} {
/upd true def
} ifelse
} ifelse
} if
} ifelse
upd true eq {
d k v put
} if
} if
} if
} forall
d length 0 gt {
d setpagedevice
} if
} bd
%%EndResource
%%BeginResource: procset (Apache XML Graphics EPS ProcSet) 1.0 0
%%Version: 1.0 0
%%Copyright: (Copyright 2002-2003 The Apache Software Foundation. License terms: http://www.apache.org/licenses/LICENSE-2.0)
/BeginEPSF { %def
/b4_Inc_state save def         % Save state for cleanup
/dict_count countdictstack def % Count objects on dict stack
/op_count count 1 sub def      % Count objects on operand stack
userdict begin                 % Push userdict on dict stack
/showpage { } def              % Redefine showpage, { } = null proc
0 setgray 0 setlinecap         % Prepare graphics state
1 setlinewidth 0 setlinejoin
10 setmiterlimit [ ] 0 setdash newpath
/languagelevel where           % If level not equal to 1 then
{pop languagelevel             % set strokeadjust and
1 ne                           % overprint to their defaults.
{false setstrokeadjust false setoverprint
} if
} if
} bd
/EndEPSF { %def
count op_count sub {pop} repeat            % Clean up stacks
countdictstack dict_count sub {end} repeat
b4_Inc_state restore
} bd
%%EndResource
%FOPBeginFontDict
%%IncludeResource: font Courier-Bold
%%IncludeResource: font Helvetica
%%IncludeResource: font Courier-BoldOblique
%%IncludeResource: font Courier-Oblique
%%IncludeResource: font Times-Roman
%%IncludeResource: font Helvetica-BoldOblique
%%IncludeResource: font Helvetica-Bold
%%IncludeResource: font Helvetica-Oblique
%%IncludeResource: font Times-BoldItalic
%%IncludeResource: font Courier
%%IncludeResource: font Times-Italic
%%IncludeResource: font Times-Bold
%%IncludeResource: font Symbol
%%IncludeResource: font ZapfDingbats
%FOPEndFontDict
%%BeginResource: encoding WinAnsiEncoding
/WinAnsiEncoding [
/.notdef /.notdef /.notdef /.notdef /.notdef
/.notdef /.notdef /.notdef /.notdef /.notdef
/.notdef /.notdef /.notdef /.notdef /.notdef
/.notdef /.notdef /.notdef /.notdef /.notdef
/.notdef /.notdef /.notdef /.notdef /.notdef
/.notdef /.notdef /.notdef /.notdef /.notdef
/.notdef /.notdef /space /exclam /quotedbl
/numbersign /dollar /percent /ampersand /quotesingle
/parenleft /parenright /asterisk /plus /comma
/hyphen /period /slash /zero /one
/two /three /four /five /six
/seven /eight /nine /colon /semicolon
/less /equal /greater /question /at
/A /B /C /D /E
/F /G /H /I /J
/K /L /M /N /O
/P /Q /R /S /T
/U /V /W /X /Y
/Z /bracketleft /backslash /bracketright /asciicircum
/underscore /quoteleft /a /b /c
/d /e /f /g /h
/i /j /k /l /m
/n /o /p /q /r
/s /t /u /v /w
/x /y /z /braceleft /bar
/braceright /asciitilde /bullet /Euro /bullet
/quotesinglbase /florin /quotedblbase /ellipsis /dagger
/daggerdbl /circumflex /perthousand /Scaron /guilsinglleft
/OE /bullet /Zcaron /bullet /bullet
/quoteleft /quoteright /quotedblleft /quotedblright /bullet
/endash /emdash /asciitilde /trademark /scaron
/guilsinglright /oe /bullet /zcaron /Ydieresis
/space /exclamdown /cent /sterling /currency
/yen /brokenbar /section /dieresis /copyright
/ordfeminine /guillemotleft /logicalnot /sfthyphen /registered
/macron /degree /plusminus /twosuperior /threesuperior
/acute /mu /paragraph /middot /cedilla
/onesuperior /ordmasculine /guillemotright /onequarter /onehalf
/threequarters /questiondown /Agrave /Aacute /Acircumflex
/Atilde /Adieresis /Aring /AE /Ccedilla
/Egrave /Eacute /Ecircumflex /Edieresis /Igrave
/Iacute /Icircumflex /Idieresis /Eth /Ntilde
/Ograve /Oacute /Ocircumflex /Otilde /Odieresis
/multiply /Oslash /Ugrave /Uacute /Ucircumflex
/Udieresis /Yacute /Thorn /germandbls /agrave
/aacute /acircumflex /atilde /adieresis /aring
/ae /ccedilla /egrave /eacute /ecircumflex
/edieresis /igrave /iacute /icircumflex /idieresis
/eth /ntilde /ograve /oacute /ocircumflex
/otilde /odieresis /divide /oslash /ugrave
/uacute /ucircumflex /udieresis /yacute /thorn
/ydieresis
] def
%%EndResource
%FOPBeginFontReencode
/Courier-Bold findfont
dup length dict begin
  {1 index /FID ne {def} {pop pop} ifelse} forall
  /Encoding WinAnsiEncoding def
  currentdict
end
/Courier-Bold exch definefont pop
/Helvetica findfont
dup length dict begin
  {1 index /FID ne {def} {pop pop} ifelse} forall
  /Encoding WinAnsiEncoding def
  currentdict
end
/Helvetica exch definefont pop
/Courier-BoldOblique findfont
dup length dict begin
  {1 index /FID ne {def} {pop pop} ifelse} forall
  /Encoding WinAnsiEncoding def
  currentdict
end
/Courier-BoldOblique exch definefont pop
/Courier-Oblique findfont
dup length dict begin
  {1 index /FID ne {def} {pop pop} ifelse} forall
  /Encoding WinAnsiEncoding def
  currentdict
end
/Courier-Oblique exch definefont pop
/Times-Roman findfont
dup length dict begin
  {1 index /FID ne {def} {pop pop} ifelse} forall
  /Encoding WinAnsiEncoding def
  currentdict
end
/Times-Roman exch definefont pop
/Helvetica-BoldOblique findfont
dup length dict begin
  {1 index /FID ne {def} {pop pop} ifelse} forall
  /Encoding WinAnsiEncoding def
  currentdict
end
/Helvetica-BoldOblique exch definefont pop
/Helvetica-Bold findfont
dup length dict begin
  {1 index /FID ne {def} {pop pop} ifelse} forall
  /Encoding WinAnsiEncoding def
  currentdict
end
/Helvetica-Bold exch definefont pop
/Helvetica-Oblique findfont
dup length dict begin
  {1 index /FID ne {def} {pop pop} ifelse} forall
  /Encoding WinAnsiEncoding def
  currentdict
end
/Helvetica-Oblique exch definefont pop
/Times-BoldItalic findfont
dup length dict begin
  {1 index /FID ne {def} {pop pop} ifelse} forall
  /Encoding WinAnsiEncoding def
  currentdict
end
/Times-BoldItalic exch definefont pop
/Courier findfont
dup length dict begin
  {1 index /FID ne {def} {pop pop} ifelse} forall
  /Encoding WinAnsiEncoding def
  currentdict
end
/Courier exch definefont pop
/Times-Italic findfont
dup length dict begin
  {1 index /FID ne {def} {pop pop} ifelse} forall
  /Encoding WinAnsiEncoding def
  currentdict
end
/Times-Italic exch definefont pop
/Times-Bold findfont
dup length dict begin
  {1 index /FID ne {def} {pop pop} ifelse} forall
  /Encoding WinAnsiEncoding def
  currentdict
end
/Times-Bold exch definefont pop
%FOPEndFontReencode
%%EndProlog
%%Page: 1 1
%%PageBoundingBox: 0 0 560 420
%%BeginPageSetup
[1 0 0 -1 0 420] CT
%%EndPageSetup
GS
1 GC
N
0 0 560 420 re
f
GR
GS
1 GC
N
0 0 560 420 re
f
GR
GS
1 GC
N
73 374 M
507 374 L
507 31.5 L
73 31.5 L
cp
f
GR
GS
0.149 GC
2 setlinecap
1 LJ
0.5 LW
N
73 374 M
507 374 L
S
GR
GS
0.149 GC
2 setlinecap
1 LJ
0.5 LW
N
73 31.5 M
507 31.5 L
S
GR
GS
0.149 GC
2 setlinecap
1 LJ
0.5 LW
N
118.94 374 M
118.94 369.66 L
S
GR
GS
0.149 GC
2 setlinecap
1 LJ
0.5 LW
N
172.988 374 M
172.988 369.66 L
S
GR
GS
0.149 GC
2 setlinecap
1 LJ
0.5 LW
N
227.035 374 M
227.035 369.66 L
S
GR
GS
0.149 GC
2 setlinecap
1 LJ
0.5 LW
N
281.082 374 M
281.082 369.66 L
S
GR
GS
0.149 GC
2 setlinecap
1 LJ
0.5 LW
N
335.13 374 M
335.13 369.66 L
S
GR
GS
0.149 GC
2 setlinecap
1 LJ
0.5 LW
N
389.177 374 M
389.177 369.66 L
S
GR
GS
0.149 GC
2 setlinecap
1 LJ
0.5 LW
N
443.224 374 M
443.224 369.66 L
S
GR
GS
0.149 GC
2 setlinecap
1 LJ
0.5 LW
N
497.271 374 M
497.271 369.66 L
S
GR
GS
0.149 GC
2 setlinecap
1 LJ
0.5 LW
N
118.94 31.5 M
118.94 35.84 L
S
GR
GS
0.149 GC
2 setlinecap
1 LJ
0.5 LW
N
172.988 31.5 M
172.988 35.84 L
S
GR
GS
0.149 GC
2 setlinecap
1 LJ
0.5 LW
N
227.035 31.5 M
227.035 35.84 L
S
GR
GS
0.149 GC
2 setlinecap
1 LJ
0.5 LW
N
281.082 31.5 M
281.082 35.84 L
S
GR
GS
0.149 GC
2 setlinecap
1 LJ
0.5 LW
N
335.13 31.5 M
335.13 35.84 L
S
GR
GS
0.149 GC
2 setlinecap
1 LJ
0.5 LW
N
389.177 31.5 M
389.177 35.84 L
S
GR
GS
0.149 GC
2 setlinecap
1 LJ
0.5 LW
N
443.224 31.5 M
443.224 35.84 L
S
GR
GS
0.149 GC
2 setlinecap
1 LJ
0.5 LW
N
497.271 31.5 M
497.271 35.84 L
S
GR
GS
[1 0 0 1 118.94022 378.79999] CT
0.149 GC
/Helvetica 14 F
GS
[1 0 0 1 0 0] CT
-10 14 moveto 
1 -1 scale
(0.7) t 
GR
GR
GS
[1 0 0 1 172.98755 378.79999] CT
0.149 GC
/Helvetica 14 F
GS
[1 0 0 1 0 0] CT
-10 14 moveto 
1 -1 scale
(0.8) t 
GR
GR
GS
[1 0 0 1 227.03485 378.79999] CT
0.149 GC
/Helvetica 14 F
GS
[1 0 0 1 0 0] CT
-10 14 moveto 
1 -1 scale
(0.9) t 
GR
GR
GS
[1 0 0 1 281.08218 378.79999] CT
0.149 GC
/Helvetica 14 F
GS
[1 0 0 1 0 0] CT
-4 14 moveto 
1 -1 scale
(1) t 
GR
GR
GS
[1 0 0 1 335.12952 378.79999] CT
0.149 GC
/Helvetica 14 F
GS
[1 0 0 1 0 0] CT
-10 14 moveto 
1 -1 scale
(1.1) t 
GR
GR
GS
[1 0 0 1 389.17685 378.79999] CT
0.149 GC
/Helvetica 14 F
GS
[1 0 0 1 0 0] CT
-10 14 moveto 
1 -1 scale
(1.2) t 
GR
GR
GS
[1 0 0 1 443.22412 378.79999] CT
0.149 GC
/Helvetica 14 F
GS
[1 0 0 1 0 0] CT
-10 14 moveto 
1 -1 scale
(1.3) t 
GR
GR
GS
[1 0 0 1 497.27145 378.79999] CT
0.149 GC
/Helvetica 14 F
GS
[1 0 0 1 0 0] CT
-10 14 moveto 
1 -1 scale
(1.4) t 
GR
GR
GS
[1 0 0 1 290.00018 396.29999] CT
0.149 GC
/Helvetica 15.4 F
GS
[1 0 0 1 0 0] CT
-24.5 15 moveto 
1 -1 scale
(Time, s) t 
GR
GR
GS
0.149 GC
2 setlinecap
1 LJ
0.5 LW
N
73 374 M
73 31.5 L
S
GR
GS
0.149 GC
2 setlinecap
1 LJ
0.5 LW
N
507 374 M
507 31.5 L
S
GR
GS
0.149 GC
2 setlinecap
1 LJ
0.5 LW
N
73 374 M
77.34 374 L
S
GR
GS
0.149 GC
2 setlinecap
1 LJ
0.5 LW
N
73 305.5 M
77.34 305.5 L
S
GR
GS
0.149 GC
2 setlinecap
1 LJ
0.5 LW
N
73 237 M
77.34 237 L
S
GR
GS
0.149 GC
2 setlinecap
1 LJ
0.5 LW
N
73 168.5 M
77.34 168.5 L
S
GR
GS
0.149 GC
2 setlinecap
1 LJ
0.5 LW
N
73 100 M
77.34 100 L
S
GR
GS
0.149 GC
2 setlinecap
1 LJ
0.5 LW
N
73 31.5 M
77.34 31.5 L
S
GR
GS
0.149 GC
2 setlinecap
1 LJ
0.5 LW
N
507 374 M
502.66 374 L
S
GR
GS
0.149 GC
2 setlinecap
1 LJ
0.5 LW
N
507 305.5 M
502.66 305.5 L
S
GR
GS
0.149 GC
2 setlinecap
1 LJ
0.5 LW
N
507 237 M
502.66 237 L
S
GR
GS
0.149 GC
2 setlinecap
1 LJ
0.5 LW
N
507 168.5 M
502.66 168.5 L
S
GR
GS
0.149 GC
2 setlinecap
1 LJ
0.5 LW
N
507 100 M
502.66 100 L
S
GR
GS
0.149 GC
2 setlinecap
1 LJ
0.5 LW
N
507 31.5 M
502.66 31.5 L
S
GR
GS
[1 0 0 1 68.20001 374] CT
0.149 GC
/Helvetica 14 F
GS
[1 0 0 1 0 0] CT
-8 5.5 moveto 
1 -1 scale
(0) t 
GR
GR
GS
[1 0 0 1 68.20001 305.5] CT
0.149 GC
/Helvetica 14 F
GS
[1 0 0 1 0 0] CT
-16 5.5 moveto 
1 -1 scale
(50) t 
GR
GR
GS
[1 0 0 1 68.20001 237] CT
0.149 GC
/Helvetica 14 F
GS
[1 0 0 1 0 0] CT
-24 5.5 moveto 
1 -1 scale
(100) t 
GR
GR
GS
[1 0 0 1 68.20001 168.5] CT
0.149 GC
/Helvetica 14 F
GS
[1 0 0 1 0 0] CT
-24 5.5 moveto 
1 -1 scale
(150) t 
GR
GR
GS
[1 0 0 1 68.20001 100] CT
0.149 GC
/Helvetica 14 F
GS
[1 0 0 1 0 0] CT
-24 5.5 moveto 
1 -1 scale
(200) t 
GR
GR
GS
[1 0 0 1 68.20001 31.5] CT
0.149 GC
/Helvetica 14 F
GS
[1 0 0 1 0 0] CT
-24 5.5 moveto 
1 -1 scale
(250) t 
GR
GR
GS
[0 -1 1 0 41.7 202.74983] CT
0.149 GC
/Helvetica 15.4 F
GS
[1 0 0 1 0 0] CT
-88 -4 moveto 
1 -1 scale
(Height above ground, mm) t 
GR
GR
GS
0 0.447 0.741 RC
1 LJ
0.7 LW
N
73 350.925 M
83.809 297.495 L
95.159 261.79 L
107.05 212.665 L
117.319 171.088 L
128.669 141.13 L
139.478 115.269 L
150.828 93.425 L
161.638 73.51 L
173.528 66.73 L
183.797 64.302 L
195.147 59.179 L
206.497 68.732 L
217.847 76.437 L
228.656 95.853 L
239.466 114.112 L
250.816 148.53 L
262.706 183.064 L
272.975 217.201 L
283.785 271.866 L
295.135 314.279 L
305.944 365.603 L
317.294 345.868 L
328.644 298.023 L
339.453 269.361 L
350.803 243.897 L
361.613 212.039 L
372.963 190.542 L
383.772 174.122 L
395.663 165.152 L
405.931 162.367 L
417.281 158.207 L
428.631 169.419 L
440.522 176.727 L
450.791 197.633 L
461.6 221.145 L
472.95 249.357 L
483.76 277.571 L
495.65 319.89 L
507 357.509 L
S
GR
GS
[1 0 0 1 73.00001 350.92508] CT
0 0.447 0.741 RC
N
1.667 0 M
1.667 0.92 0.92 1.667 0 1.667 C
-0.92 1.667 -1.667 0.92 -1.667 0 C
-1.667 -0.92 -0.92 -1.667 0 -1.667 C
0.92 -1.667 1.667 -0.92 1.667 0 C
cp
f
GR
GS
[1 0 0 1 83.80946 297.49509] CT
0 0.447 0.741 RC
N
1.667 0 M
1.667 0.92 0.92 1.667 0 1.667 C
-0.92 1.667 -1.667 0.92 -1.667 0 C
-1.667 -0.92 -0.92 -1.667 0 -1.667 C
0.92 -1.667 1.667 -0.92 1.667 0 C
cp
f
GR
GS
[1 0 0 1 95.15941 261.79016] CT
0 0.447 0.741 RC
N
1.667 0 M
1.667 0.92 0.92 1.667 0 1.667 C
-0.92 1.667 -1.667 0.92 -1.667 0 C
-1.667 -0.92 -0.92 -1.667 0 -1.667 C
0.92 -1.667 1.667 -0.92 1.667 0 C
cp
f
GR
GS
[1 0 0 1 107.0498 212.66469] CT
0 0.447 0.741 RC
N
1.667 0 M
1.667 0.92 0.92 1.667 0 1.667 C
-0.92 1.667 -1.667 0.92 -1.667 0 C
-1.667 -0.92 -0.92 -1.667 0 -1.667 C
0.92 -1.667 1.667 -0.92 1.667 0 C
cp
f
GR
GS
[1 0 0 1 117.31882 171.08794] CT
0 0.447 0.741 RC
N
1.667 0 M
1.667 0.92 0.92 1.667 0 1.667 C
-0.92 1.667 -1.667 0.92 -1.667 0 C
-1.667 -0.92 -0.92 -1.667 0 -1.667 C
0.92 -1.667 1.667 -0.92 1.667 0 C
cp
f
GR
GS
[1 0 0 1 128.66875 141.13014] CT
0 0.447 0.741 RC
N
1.667 0 M
1.667 0.92 0.92 1.667 0 1.667 C
-0.92 1.667 -1.667 0.92 -1.667 0 C
-1.667 -0.92 -0.92 -1.667 0 -1.667 C
0.92 -1.667 1.667 -0.92 1.667 0 C
cp
f
GR
GS
[1 0 0 1 139.4782 115.26865] CT
0 0.447 0.741 RC
N
1.667 0 M
1.667 0.92 0.92 1.667 0 1.667 C
-0.92 1.667 -1.667 0.92 -1.667 0 C
-1.667 -0.92 -0.92 -1.667 0 -1.667 C
0.92 -1.667 1.667 -0.92 1.667 0 C
cp
f
GR
GS
[1 0 0 1 150.82814 93.42538] CT
0 0.447 0.741 RC
N
1.667 0 M
1.667 0.92 0.92 1.667 0 1.667 C
-0.92 1.667 -1.667 0.92 -1.667 0 C
-1.667 -0.92 -0.92 -1.667 0 -1.667 C
0.92 -1.667 1.667 -0.92 1.667 0 C
cp
f
GR
GS
[1 0 0 1 161.6376 73.50968] CT
0 0.447 0.741 RC
N
1.667 0 M
1.667 0.92 0.92 1.667 0 1.667 C
-0.92 1.667 -1.667 0.92 -1.667 0 C
-1.667 -0.92 -0.92 -1.667 0 -1.667 C
0.92 -1.667 1.667 -0.92 1.667 0 C
cp
f
GR
GS
[1 0 0 1 173.52802 66.72955] CT
0 0.447 0.741 RC
N
1.667 0 M
1.667 0.92 0.92 1.667 0 1.667 C
-0.92 1.667 -1.667 0.92 -1.667 0 C
-1.667 -0.92 -0.92 -1.667 0 -1.667 C
0.92 -1.667 1.667 -0.92 1.667 0 C
cp
f
GR
GS
[1 0 0 1 183.79701 64.3019] CT
0 0.447 0.741 RC
N
1.667 0 M
1.667 0.92 0.92 1.667 0 1.667 C
-0.92 1.667 -1.667 0.92 -1.667 0 C
-1.667 -0.92 -0.92 -1.667 0 -1.667 C
0.92 -1.667 1.667 -0.92 1.667 0 C
cp
f
GR
GS
[1 0 0 1 195.14696 59.17947] CT
0 0.447 0.741 RC
N
1.667 0 M
1.667 0.92 0.92 1.667 0 1.667 C
-0.92 1.667 -1.667 0.92 -1.667 0 C
-1.667 -0.92 -0.92 -1.667 0 -1.667 C
0.92 -1.667 1.667 -0.92 1.667 0 C
cp
f
GR
GS
[1 0 0 1 206.49689 68.73249] CT
0 0.447 0.741 RC
N
1.667 0 M
1.667 0.92 0.92 1.667 0 1.667 C
-0.92 1.667 -1.667 0.92 -1.667 0 C
-1.667 -0.92 -0.92 -1.667 0 -1.667 C
0.92 -1.667 1.667 -0.92 1.667 0 C
cp
f
GR
GS
[1 0 0 1 217.84683 76.43736] CT
0 0.447 0.741 RC
N
1.667 0 M
1.667 0.92 0.92 1.667 0 1.667 C
-0.92 1.667 -1.667 0.92 -1.667 0 C
-1.667 -0.92 -0.92 -1.667 0 -1.667 C
0.92 -1.667 1.667 -0.92 1.667 0 C
cp
f
GR
GS
[1 0 0 1 228.65628 95.85302] CT
0 0.447 0.741 RC
N
1.667 0 M
1.667 0.92 0.92 1.667 0 1.667 C
-0.92 1.667 -1.667 0.92 -1.667 0 C
-1.667 -0.92 -0.92 -1.667 0 -1.667 C
0.92 -1.667 1.667 -0.92 1.667 0 C
cp
f
GR
GS
[1 0 0 1 239.46574 114.11237] CT
0 0.447 0.741 RC
N
1.667 0 M
1.667 0.92 0.92 1.667 0 1.667 C
-0.92 1.667 -1.667 0.92 -1.667 0 C
-1.667 -0.92 -0.92 -1.667 0 -1.667 C
0.92 -1.667 1.667 -0.92 1.667 0 C
cp
f
GR
GS
[1 0 0 1 250.81569 148.52951] CT
0 0.447 0.741 RC
N
1.667 0 M
1.667 0.92 0.92 1.667 0 1.667 C
-0.92 1.667 -1.667 0.92 -1.667 0 C
-1.667 -0.92 -0.92 -1.667 0 -1.667 C
0.92 -1.667 1.667 -0.92 1.667 0 C
cp
f
GR
GS
[1 0 0 1 262.70612 183.06447] CT
0 0.447 0.741 RC
N
1.667 0 M
1.667 0.92 0.92 1.667 0 1.667 C
-0.92 1.667 -1.667 0.92 -1.667 0 C
-1.667 -0.92 -0.92 -1.667 0 -1.667 C
0.92 -1.667 1.667 -0.92 1.667 0 C
cp
f
GR
GS
[1 0 0 1 272.9751 217.20076] CT
0 0.447 0.741 RC
N
1.667 0 M
1.667 0.92 0.92 1.667 0 1.667 C
-0.92 1.667 -1.667 0.92 -1.667 0 C
-1.667 -0.92 -0.92 -1.667 0 -1.667 C
0.92 -1.667 1.667 -0.92 1.667 0 C
cp
f
GR
GS
[1 0 0 1 283.78455 271.86649] CT
0 0.447 0.741 RC
N
1.667 0 M
1.667 0.92 0.92 1.667 0 1.667 C
-0.92 1.667 -1.667 0.92 -1.667 0 C
-1.667 -0.92 -0.92 -1.667 0 -1.667 C
0.92 -1.667 1.667 -0.92 1.667 0 C
cp
f
GR
GS
[1 0 0 1 295.13452 314.27896] CT
0 0.447 0.741 RC
N
1.667 0 M
1.667 0.92 0.92 1.667 0 1.667 C
-0.92 1.667 -1.667 0.92 -1.667 0 C
-1.667 -0.92 -0.92 -1.667 0 -1.667 C
0.92 -1.667 1.667 -0.92 1.667 0 C
cp
f
GR
GS
[1 0 0 1 305.94397 365.60327] CT
0 0.447 0.741 RC
N
1.667 0 M
1.667 0.92 0.92 1.667 0 1.667 C
-0.92 1.667 -1.667 0.92 -1.667 0 C
-1.667 -0.92 -0.92 -1.667 0 -1.667 C
0.92 -1.667 1.667 -0.92 1.667 0 C
cp
f
GR
GS
[1 0 0 1 317.29391 345.86841] CT
0 0.447 0.741 RC
N
1.667 0 M
1.667 0.92 0.92 1.667 0 1.667 C
-0.92 1.667 -1.667 0.92 -1.667 0 C
-1.667 -0.92 -0.92 -1.667 0 -1.667 C
0.92 -1.667 1.667 -0.92 1.667 0 C
cp
f
GR
GS
[1 0 0 1 328.64386 298.02255] CT
0 0.447 0.741 RC
N
1.667 0 M
1.667 0.92 0.92 1.667 0 1.667 C
-0.92 1.667 -1.667 0.92 -1.667 0 C
-1.667 -0.92 -0.92 -1.667 0 -1.667 C
0.92 -1.667 1.667 -0.92 1.667 0 C
cp
f
GR
GS
[1 0 0 1 339.45331 269.36078] CT
0 0.447 0.741 RC
N
1.667 0 M
1.667 0.92 0.92 1.667 0 1.667 C
-0.92 1.667 -1.667 0.92 -1.667 0 C
-1.667 -0.92 -0.92 -1.667 0 -1.667 C
0.92 -1.667 1.667 -0.92 1.667 0 C
cp
f
GR
GS
[1 0 0 1 350.80322 243.89658] CT
0 0.447 0.741 RC
N
1.667 0 M
1.667 0.92 0.92 1.667 0 1.667 C
-0.92 1.667 -1.667 0.92 -1.667 0 C
-1.667 -0.92 -0.92 -1.667 0 -1.667 C
0.92 -1.667 1.667 -0.92 1.667 0 C
cp
f
GR
GS
[1 0 0 1 361.61273 212.0386] CT
0 0.447 0.741 RC
N
1.667 0 M
1.667 0.92 0.92 1.667 0 1.667 C
-0.92 1.667 -1.667 0.92 -1.667 0 C
-1.667 -0.92 -0.92 -1.667 0 -1.667 C
0.92 -1.667 1.667 -0.92 1.667 0 C
cp
f
GR
GS
[1 0 0 1 372.96262 190.54193] CT
0 0.447 0.741 RC
N
1.667 0 M
1.667 0.92 0.92 1.667 0 1.667 C
-0.92 1.667 -1.667 0.92 -1.667 0 C
-1.667 -0.92 -0.92 -1.667 0 -1.667 C
0.92 -1.667 1.667 -0.92 1.667 0 C
cp
f
GR
GS
[1 0 0 1 383.77213 174.12248] CT
0 0.447 0.741 RC
N
1.667 0 M
1.667 0.92 0.92 1.667 0 1.667 C
-0.92 1.667 -1.667 0.92 -1.667 0 C
-1.667 -0.92 -0.92 -1.667 0 -1.667 C
0.92 -1.667 1.667 -0.92 1.667 0 C
cp
f
GR
GS
[1 0 0 1 395.66254 165.15172] CT
0 0.447 0.741 RC
N
1.667 0 M
1.667 0.92 0.92 1.667 0 1.667 C
-0.92 1.667 -1.667 0.92 -1.667 0 C
-1.667 -0.92 -0.92 -1.667 0 -1.667 C
0.92 -1.667 1.667 -0.92 1.667 0 C
cp
f
GR
GS
[1 0 0 1 405.93149 162.3665] CT
0 0.447 0.741 RC
N
1.667 0 M
1.667 0.92 0.92 1.667 0 1.667 C
-0.92 1.667 -1.667 0.92 -1.667 0 C
-1.667 -0.92 -0.92 -1.667 0 -1.667 C
0.92 -1.667 1.667 -0.92 1.667 0 C
cp
f
GR
GS
[1 0 0 1 417.28143 158.20718] CT
0 0.447 0.741 RC
N
1.667 0 M
1.667 0.92 0.92 1.667 0 1.667 C
-0.92 1.667 -1.667 0.92 -1.667 0 C
-1.667 -0.92 -0.92 -1.667 0 -1.667 C
0.92 -1.667 1.667 -0.92 1.667 0 C
cp
f
GR
GS
[1 0 0 1 428.63138 169.41928] CT
0 0.447 0.741 RC
N
1.667 0 M
1.667 0.92 0.92 1.667 0 1.667 C
-0.92 1.667 -1.667 0.92 -1.667 0 C
-1.667 -0.92 -0.92 -1.667 0 -1.667 C
0.92 -1.667 1.667 -0.92 1.667 0 C
cp
f
GR
GS
[1 0 0 1 440.52176 176.72685] CT
0 0.447 0.741 RC
N
1.667 0 M
1.667 0.92 0.92 1.667 0 1.667 C
-0.92 1.667 -1.667 0.92 -1.667 0 C
-1.667 -0.92 -0.92 -1.667 0 -1.667 C
0.92 -1.667 1.667 -0.92 1.667 0 C
cp
f
GR
GS
[1 0 0 1 450.7908 197.63306] CT
0 0.447 0.741 RC
N
1.667 0 M
1.667 0.92 0.92 1.667 0 1.667 C
-0.92 1.667 -1.667 0.92 -1.667 0 C
-1.667 -0.92 -0.92 -1.667 0 -1.667 C
0.92 -1.667 1.667 -0.92 1.667 0 C
cp
f
GR
GS
[1 0 0 1 461.60025 221.14499] CT
0 0.447 0.741 RC
N
1.667 0 M
1.667 0.92 0.92 1.667 0 1.667 C
-0.92 1.667 -1.667 0.92 -1.667 0 C
-1.667 -0.92 -0.92 -1.667 0 -1.667 C
0.92 -1.667 1.667 -0.92 1.667 0 C
cp
f
GR
GS
[1 0 0 1 472.9502 249.35739] CT
0 0.447 0.741 RC
N
1.667 0 M
1.667 0.92 0.92 1.667 0 1.667 C
-0.92 1.667 -1.667 0.92 -1.667 0 C
-1.667 -0.92 -0.92 -1.667 0 -1.667 C
0.92 -1.667 1.667 -0.92 1.667 0 C
cp
f
GR
GS
[1 0 0 1 483.75964 277.57117] CT
0 0.447 0.741 RC
N
1.667 0 M
1.667 0.92 0.92 1.667 0 1.667 C
-0.92 1.667 -1.667 0.92 -1.667 0 C
-1.667 -0.92 -0.92 -1.667 0 -1.667 C
0.92 -1.667 1.667 -0.92 1.667 0 C
cp
f
GR
GS
[1 0 0 1 495.65002 319.89047] CT
0 0.447 0.741 RC
N
1.667 0 M
1.667 0.92 0.92 1.667 0 1.667 C
-0.92 1.667 -1.667 0.92 -1.667 0 C
-1.667 -0.92 -0.92 -1.667 0 -1.667 C
0.92 -1.667 1.667 -0.92 1.667 0 C
cp
f
GR
GS
[1 0 0 1 507 357.50931] CT
0 0.447 0.741 RC
N
1.667 0 M
1.667 0.92 0.92 1.667 0 1.667 C
-0.92 1.667 -1.667 0.92 -1.667 0 C
-1.667 -0.92 -0.92 -1.667 0 -1.667 C
0.92 -1.667 1.667 -0.92 1.667 0 C
cp
f
GR
GS
0.851 0.325 0.098 RC
1 LJ
N
297 335 M
302 330 L
S
GR
GS
0.851 0.325 0.098 RC
1 LJ
N
297 330 M
302 335 L
S
GR
GS
0.851 0.325 0.098 RC
1 LJ
N
283 265 M
288 260 L
S
GR
GS
0.851 0.325 0.098 RC
1 LJ
N
283 260 M
288 265 L
S
GR
GS
0.851 0.325 0.098 RC
1 LJ
N
270 223 M
275 218 L
S
GR
GS
0.851 0.325 0.098 RC
1 LJ
N
270 218 M
275 223 L
S
GR
GS
0.851 0.325 0.098 RC
1 LJ
N
256 185 M
261 180 L
S
GR
GS
0.851 0.325 0.098 RC
1 LJ
N
256 180 M
261 185 L
S
GR
GS
0.851 0.325 0.098 RC
1 LJ
N
243 138 M
248 133 L
S
GR
GS
0.851 0.325 0.098 RC
1 LJ
N
243 133 M
248 138 L
S
GR
GS
0.851 0.325 0.098 RC
1 LJ
N
229 107 M
234 102 L
S
GR
GS
0.851 0.325 0.098 RC
1 LJ
N
229 102 M
234 107 L
S
GR
GS
0.851 0.325 0.098 RC
1 LJ
N
216 83 M
221 78 L
S
GR
GS
0.851 0.325 0.098 RC
1 LJ
N
216 78 M
221 83 L
S
GR
GS
0.851 0.325 0.098 RC
1 LJ
N
202 69 M
207 64 L
S
GR
GS
0.851 0.325 0.098 RC
1 LJ
N
202 64 M
207 69 L
S
GR
GS
0.851 0.325 0.098 RC
1 LJ
N
189 65 M
194 60 L
S
GR
GS
0.851 0.325 0.098 RC
1 LJ
N
189 60 M
194 65 L
S
GR
GS
0.851 0.325 0.098 RC
1 LJ
N
176 59 M
181 54 L
S
GR
GS
0.851 0.325 0.098 RC
1 LJ
N
176 54 M
181 59 L
S
GR
GS
0.851 0.325 0.098 RC
1 LJ
N
162 76 M
167 71 L
S
GR
GS
0.851 0.325 0.098 RC
1 LJ
N
162 71 M
167 76 L
S
GR
GS
0.851 0.325 0.098 RC
1 LJ
N
147 86 M
152 81 L
S
GR
GS
0.851 0.325 0.098 RC
1 LJ
N
147 81 M
152 86 L
S
GR
GS
0.851 0.325 0.098 RC
1 LJ
N
135 117 M
140 112 L
S
GR
GS
0.851 0.325 0.098 RC
1 LJ
N
135 112 M
140 117 L
S
GR
GS
0.851 0.325 0.098 RC
1 LJ
N
122 152 M
127 147 L
S
GR
GS
0.851 0.325 0.098 RC
1 LJ
N
122 147 M
127 152 L
S
GR
GS
0.851 0.325 0.098 RC
1 LJ
N
108 193 M
113 188 L
S
GR
GS
0.851 0.325 0.098 RC
1 LJ
N
108 188 M
113 193 L
S
GR
GS
0.851 0.325 0.098 RC
1 LJ
N
95 235 M
100 230 L
S
GR
GS
0.851 0.325 0.098 RC
1 LJ
N
95 230 M
100 235 L
S
GR
GS
0.851 0.325 0.098 RC
1 LJ
N
81 297 M
86 292 L
S
GR
GS
0.851 0.325 0.098 RC
1 LJ
N
81 292 M
86 297 L
S
GR
GS
1 LJ
N
312.5 373.5 M
311.621 371.379 L
309.5 370.5 L
307.379 371.379 L
306.5 373.5 L
307.379 375.621 L
309.5 376.5 L
311.621 375.621 L
cp
S
GR
GS
1 GC
N
294.5 91.5 M
294.5 41.5 L
497 41.5 L
497 91.5 L
cp
f
GR
GS
[1 0 0 1 331.5 51] CT
/Helvetica 12.6 F
GS
[1 0 0 1 0 0] CT
0 5 moveto 
1 -1 scale
(Original data) t 
GR
GR
GS
0 0.447 0.741 RC
1 LJ
0.7 LW
N
298.5 51 M
328.5 51 L
S
GR
GS
[1 0 0 1 313.5 51] CT
0 0.447 0.741 RC
N
1.667 0 M
1.667 0.92 0.92 1.667 0 1.667 C
-0.92 1.667 -1.667 0.92 -1.667 0 C
-1.667 -0.92 -0.92 -1.667 0 -1.667 C
0.92 -1.667 1.667 -0.92 1.667 0 C
cp
f
GR
GS
[1 0 0 1 331.5 66.5] CT
/Helvetica 12.6 F
GS
[1 0 0 1 0 0] CT
0 5 moveto 
1 -1 scale
(Transformed second bounce) t 
GR
GR
GS
0.851 0.325 0.098 RC
1 LJ
N
311 69 M
316 64 L
S
GR
GS
0.851 0.325 0.098 RC
1 LJ
N
311 64 M
316 69 L
S
GR
GS
[1 0 0 1 331.5 82] CT
/Helvetica 12.6 F
GS
[1 0 0 1 0 0] CT
0 5 moveto 
1 -1 scale
(Predicted bounce location) t 
GR
GR
GS
1 LJ
N
316.5 82.5 M
315.621 80.379 L
313.5 79.5 L
311.379 80.379 L
310.5 82.5 L
311.379 84.621 L
313.5 85.5 L
315.621 84.621 L
cp
S
GR
GS
0.149 GC
10.0 ML
0.5 LW
N
294.5 91.5 M
294.5 41.5 L
497 41.5 L
497 91.5 L
cp
S
GR
%%Trailer
%%Pages: 1
%%EOF
